[ {
  "IsPitLap": false,
  "LapNumber": 1,
  "IsValid": false,
  "LapStartPosition": 31,
  "LapStartPositionClass": 31,
  "LapTime": "00:02:22.3120000",
  "Sector1": "00:00:00",
  "Sector2": "00:00:00",
  "Sector3": "00:00:00"
},
{
  "IsPitLap": false,
  "LapNumber": 2,
  "IsValid": true,
  "LapStartPosition": 28,
  "LapStartPositionClass": 28,
  "LapTime": "00:02:10.0850000",
  "Sector1": "00:00:27.8090000",
  "Sector2": "00:00:50.4030000",
  "Sector3": "00:00:51.6000000"
},
{
  "IsPitLap": false,
  "LapNumber": 3,
  "IsValid": true,
  "LapStartPosition": 29,
  "LapStartPositionClass": 29,
  "LapTime": "00:02:08.4150000",
  "Sector1": "00:00:27.1870000",
  "Sector2": "00:00:50.4000000",
  "Sector3": "00:00:50.6000000"
},
{
  "IsPitLap": false,
  "LapNumber": 4,
  "IsValid": false,
  "LapStartPosition": 29,
  "LapStartPositionClass": 29,
  "LapTime": "00:02:08.7400000",
  "Sector1": "00:00:26.7160000",
  "Sector2": "00:00:49.4000000",
  "Sector3": "00:00:52.4070000"
},
{
  "IsPitLap": false,
  "LapNumber": 5,
  "IsValid": true,
  "LapStartPosition": 29,
  "LapStartPositionClass": 29,
  "LapTime": "00:02:06.9150000",
  "Sector1": "00:00:26.5990000",
  "Sector2": "00:00:49.6150000",
  "Sector3": "00:00:50.4180000"
},
{
  "IsPitLap": false,
  "LapNumber": 6,
  "IsValid": true,
  "LapStartPosition": 29,
  "LapStartPositionClass": 29,
  "LapTime": "00:02:08.1320000",
  "Sector1": "00:00:26.7230000",
  "Sector2": "00:00:50",
  "Sector3": "00:00:51.2480000"
},
{
  "IsPitLap": false,
  "LapNumber": 7,
  "IsValid": true,
  "LapStartPosition": 29,
  "LapStartPositionClass": 29,
  "LapTime": "00:02:07.2950000",
  "Sector1": "00:00:26.6850000",
  "Sector2": "00:00:49.6030000",
  "Sector3": "00:00:50.8000000"
},
{
  "IsPitLap": false,
  "LapNumber": 8,
  "IsValid": true,
  "LapStartPosition": 29,
  "LapStartPositionClass": 29,
  "LapTime": "00:02:07.6000000",
  "Sector1": "00:00:26.5580000",
  "Sector2": "00:00:49.6720000",
  "Sector3": "00:00:51.2050000"
},
{
  "IsPitLap": false,
  "LapNumber": 9,
  "IsValid": true,
  "LapStartPosition": 29,
  "LapStartPositionClass": 29,
  "LapTime": "00:02:07.3870000",
  "Sector1": "00:00:26.6440000",
  "Sector2": "00:00:49.4000000",
  "Sector3": "00:00:51.2000000"
},
{
  "IsPitLap": false,
  "LapNumber": 10,
  "IsValid": false,
  "LapStartPosition": 29,
  "LapStartPositionClass": 29,
  "LapTime": "00:02:07.8800000",
  "Sector1": "00:00:26.6580000",
  "Sector2": "00:00:49.8030000",
  "Sector3": "00:00:51.2000000"
},
{
  "IsPitLap": false,
  "LapNumber": 11,
  "IsValid": false,
  "LapStartPosition": 29,
  "LapStartPositionClass": 29,
  "LapTime": "00:02:08.3450000",
  "Sector1": "00:00:26.7930000",
  "Sector2": "00:00:49.8000000",
  "Sector3": "00:00:51.6120000"
},
{
  "IsPitLap": false,
  "LapNumber": 12,
  "IsValid": true,
  "LapStartPosition": 29,
  "LapStartPositionClass": 29,
  "LapTime": "00:02:08.0220000",
  "Sector1": "00:00:26.9140000",
  "Sector2": "00:00:49.8030000",
  "Sector3": "00:00:51.2000000"
},
{
  "IsPitLap": false,
  "LapNumber": 13,
  "IsValid": true,
  "LapStartPosition": 29,
  "LapStartPositionClass": 29,
  "LapTime": "00:02:07.9150000",
  "Sector1": "00:00:26.8320000",
  "Sector2": "00:00:49.8000000",
  "Sector3": "00:00:51.0920000"
},
{
  "IsPitLap": false,
  "LapNumber": 14,
  "IsValid": false,
  "LapStartPosition": 28,
  "LapStartPositionClass": 28,
  "LapTime": "00:02:08.3850000",
  "Sector1": "00:00:26.8220000",
  "Sector2": "00:00:50.4000000",
  "Sector3": "00:00:51"
},
{
  "IsPitLap": false,
  "LapNumber": 15,
  "IsValid": true,
  "LapStartPosition": 27,
  "LapStartPositionClass": 27,
  "LapTime": "00:02:08.1170000",
  "Sector1": "00:00:26.8410000",
  "Sector2": "00:00:49.8000000",
  "Sector3": "00:00:51.2270000"
},
{
  "IsPitLap": false,
  "LapNumber": 16,
  "IsValid": false,
  "LapStartPosition": 27,
  "LapStartPositionClass": 27,
  "LapTime": "00:02:08.7270000",
  "Sector1": "00:00:26.7700000",
  "Sector2": "00:00:50.8230000",
  "Sector3": "00:00:50.8570000"
},
{
  "IsPitLap": false,
  "LapNumber": 17,
  "IsValid": false,
  "LapStartPosition": 27,
  "LapStartPositionClass": 27,
  "LapTime": "00:02:08.3450000",
  "Sector1": "00:00:27.2730000",
  "Sector2": "00:00:49.6700000",
  "Sector3": "00:00:51.2650000"
},
{
  "IsPitLap": false,
  "LapNumber": 18,
  "IsValid": true,
  "LapStartPosition": 26,
  "LapStartPositionClass": 26,
  "LapTime": "00:02:08.2050000",
  "Sector1": "00:00:26.8630000",
  "Sector2": "00:00:49.6250000",
  "Sector3": "00:00:51.4000000"
},
{
  "IsPitLap": false,
  "LapNumber": 19,
  "IsValid": false,
  "LapStartPosition": 26,
  "LapStartPositionClass": 26,
  "LapTime": "00:02:08.4320000",
  "Sector1": "00:00:26.8700000",
  "Sector2": "00:00:49.8000000",
  "Sector3": "00:00:51.6000000"
},
{
  "IsPitLap": false,
  "LapNumber": 20,
  "IsValid": true,
  "LapStartPosition": 26,
  "LapStartPositionClass": 26,
  "LapTime": "00:02:08.7350000",
  "Sector1": "00:00:27.5280000",
  "Sector2": "00:00:49.8650000",
  "Sector3": "00:00:51.2100000"
},
{
  "IsPitLap": false,
  "LapNumber": 21,
  "IsValid": true,
  "LapStartPosition": 27,
  "LapStartPositionClass": 27,
  "LapTime": "00:02:07.8620000",
  "Sector1": "00:00:26.8080000",
  "Sector2": "00:00:49.8080000",
  "Sector3": "00:00:51.0500000"
},
{
  "IsPitLap": false,
  "LapNumber": 22,
  "IsValid": true,
  "LapStartPosition": 27,
  "LapStartPositionClass": 27,
  "LapTime": "00:02:07.9220000",
  "Sector1": "00:00:26.8560000",
  "Sector2": "00:00:49.4780000",
  "Sector3": "00:00:51.4200000"
},
{
  "IsPitLap": false,
  "LapNumber": 23,
  "IsValid": true,
  "LapStartPosition": 27,
  "LapStartPositionClass": 27,
  "LapTime": "00:02:08.3000000",
  "Sector1": "00:00:26.7950000",
  "Sector2": "00:00:49.6000000",
  "Sector3": "00:00:51.6570000"
},
{
  "IsPitLap": false,
  "LapNumber": 24,
  "IsValid": true,
  "LapStartPosition": 27,
  "LapStartPositionClass": 27,
  "LapTime": "00:02:08.5870000",
  "Sector1": "00:00:26.9680000",
  "Sector2": "00:00:50.1130000",
  "Sector3": "00:00:51.2270000"
},
{
  "IsPitLap": false,
  "LapNumber": 25,
  "IsValid": false,
  "LapStartPosition": 25,
  "LapStartPositionClass": 25,
  "LapTime": "00:02:09.0170000",
  "Sector1": "00:00:26.8000000",
  "Sector2": "00:00:50.0130000",
  "Sector3": "00:00:52"
},
{
  "IsPitLap": false,
  "LapNumber": 26,
  "IsValid": true,
  "LapStartPosition": 25,
  "LapStartPositionClass": 25,
  "LapTime": "00:02:09.6900000",
  "Sector1": "00:00:27.2550000",
  "Sector2": "00:00:50.2000000",
  "Sector3": "00:00:52"
},
{
  "IsPitLap": false,
  "LapNumber": 27,
  "IsValid": true,
  "LapStartPosition": 26,
  "LapStartPositionClass": 26,
  "LapTime": "00:02:08.9070000",
  "Sector1": "00:00:26.9710000",
  "Sector2": "00:00:50.2000000",
  "Sector3": "00:00:51.6000000"
},
{
  "IsPitLap": false,
  "LapNumber": 28,
  "IsValid": true,
  "LapStartPosition": 24,
  "LapStartPositionClass": 24,
  "LapTime": "00:02:08.2020000",
  "Sector1": "00:00:26.8600000",
  "Sector2": "00:00:49.8000000",
  "Sector3": "00:00:51.2700000"
},
{
  "IsPitLap": false,
  "LapNumber": 29,
  "IsValid": true,
  "LapStartPosition": 24,
  "LapStartPositionClass": 24,
  "LapTime": "00:02:08.3600000",
  "Sector1": "00:00:26.9410000",
  "Sector2": "00:00:49.6480000",
  "Sector3": "00:00:51.6020000"
},
{
  "IsPitLap": true,
  "LapNumber": 30,
  "IsValid": false,
  "LapStartPosition": 22,
  "LapStartPositionClass": 22,
  "LapTime": "00:02:13.4100000",
  "Sector1": "00:00:26.8360000",
  "Sector2": "00:00:50",
  "Sector3": "00:00:56.2000000"
},
{
  "IsPitLap": true,
  "LapNumber": 31,
  "IsValid": true,
  "LapStartPosition": 20,
  "LapStartPositionClass": 20,
  "LapTime": "00:03:13.7220000",
  "Sector1": "00:01:30.1350000",
  "Sector2": "00:00:50.7670000",
  "Sector3": "00:00:52.8180000"
},
{
  "IsPitLap": false,
  "LapNumber": 32,
  "IsValid": true,
  "LapStartPosition": 24,
  "LapStartPositionClass": 24,
  "LapTime": "00:02:09.1820000",
  "Sector1": "00:00:27.5300000",
  "Sector2": "00:00:50.2170000",
  "Sector3": "00:00:51.4180000"
},
{
  "IsPitLap": false,
  "LapNumber": 33,
  "IsValid": false,
  "LapStartPosition": 24,
  "LapStartPositionClass": 24,
  "LapTime": "00:02:08.8750000",
  "Sector1": "00:00:27.3650000",
  "Sector2": "00:00:50.4120000",
  "Sector3": "00:00:51.0830000"
},
{
  "IsPitLap": false,
  "LapNumber": 34,
  "IsValid": true,
  "LapStartPosition": 24,
  "LapStartPositionClass": 24,
  "LapTime": "00:02:11.0750000",
  "Sector1": "00:00:28.3700000",
  "Sector2": "00:00:49.8720000",
  "Sector3": "00:00:52.7850000"
},
{
  "IsPitLap": false,
  "LapNumber": 35,
  "IsValid": true,
  "LapStartPosition": 26,
  "LapStartPositionClass": 26,
  "LapTime": "00:02:08.4970000",
  "Sector1": "00:00:27.2200000",
  "Sector2": "00:00:49.8500000",
  "Sector3": "00:00:51.3850000"
},
{
  "IsPitLap": false,
  "LapNumber": 36,
  "IsValid": true,
  "LapStartPosition": 26,
  "LapStartPositionClass": 26,
  "LapTime": "00:02:08.8070000",
  "Sector1": "00:00:27.1250000",
  "Sector2": "00:00:50",
  "Sector3": "00:00:51.6670000"
},
{
  "IsPitLap": false,
  "LapNumber": 37,
  "IsValid": true,
  "LapStartPosition": 27,
  "LapStartPositionClass": 27,
  "LapTime": "00:02:10.9170000",
  "Sector1": "00:00:27.3850000",
  "Sector2": "00:00:51.4850000",
  "Sector3": "00:00:52.0320000"
},
{
  "IsPitLap": false,
  "LapNumber": 38,
  "IsValid": true,
  "LapStartPosition": 28,
  "LapStartPositionClass": 28,
  "LapTime": "00:02:09.3070000",
  "Sector1": "00:00:27.4170000",
  "Sector2": "00:00:50.5350000",
  "Sector3": "00:00:51.3500000"
},
{
  "IsPitLap": false,
  "LapNumber": 39,
  "IsValid": true,
  "LapStartPosition": 27,
  "LapStartPositionClass": 27,
  "LapTime": "00:02:08.7720000",
  "Sector1": "00:00:27.4120000",
  "Sector2": "00:00:49.9850000",
  "Sector3": "00:00:51.3650000"
},
{
  "IsPitLap": false,
  "LapNumber": 40,
  "IsValid": true,
  "LapStartPosition": 27,
  "LapStartPositionClass": 27,
  "LapTime": "00:02:08.3600000",
  "Sector1": "00:00:27.2570000",
  "Sector2": "00:00:50.0500000",
  "Sector3": "00:00:51.0350000"
},
{
  "IsPitLap": false,
  "LapNumber": 41,
  "IsValid": false,
  "LapStartPosition": 27,
  "LapStartPositionClass": 27,
  "LapTime": "00:02:08.9150000",
  "Sector1": "00:00:27.3970000",
  "Sector2": "00:00:50.2530000",
  "Sector3": "00:00:51.2320000"
},
{
  "IsPitLap": false,
  "LapNumber": 42,
  "IsValid": false,
  "LapStartPosition": 27,
  "LapStartPositionClass": 27,
  "LapTime": "00:02:08.3220000",
  "Sector1": "00:00:27.2670000",
  "Sector2": "00:00:49.9250000",
  "Sector3": "00:00:51.1030000"
},
{
  "IsPitLap": false,
  "LapNumber": 43,
  "IsValid": true,
  "LapStartPosition": 27,
  "LapStartPositionClass": 27,
  "LapTime": "00:02:08.8720000",
  "Sector1": "00:00:27.3720000",
  "Sector2": "00:00:49.8850000",
  "Sector3": "00:00:51.5830000"
},
{
  "IsPitLap": false,
  "LapNumber": 44,
  "IsValid": false,
  "LapStartPosition": 27,
  "LapStartPositionClass": 27,
  "LapTime": "00:02:09.3300000",
  "Sector1": "00:00:27.2200000",
  "Sector2": "00:00:50.5000000",
  "Sector3": "00:00:51.5850000"
},
{
  "IsPitLap": false,
  "LapNumber": 45,
  "IsValid": true,
  "LapStartPosition": 27,
  "LapStartPositionClass": 27,
  "LapTime": "00:02:09.6070000",
  "Sector1": "00:00:27.3720000",
  "Sector2": "00:00:50.5680000",
  "Sector3": "00:00:51.6350000"
},
{
  "IsPitLap": false,
  "LapNumber": 46,
  "IsValid": false,
  "LapStartPosition": 27,
  "LapStartPositionClass": 27,
  "LapTime": "00:02:09.4850000",
  "Sector1": "00:00:27.3850000",
  "Sector2": "00:00:50.3000000",
  "Sector3": "00:00:51.7850000"
},
{
  "IsPitLap": false,
  "LapNumber": 47,
  "IsValid": true,
  "LapStartPosition": 27,
  "LapStartPositionClass": 27,
  "LapTime": "00:02:08.6820000",
  "Sector1": "00:00:27.2670000",
  "Sector2": "00:00:50.0500000",
  "Sector3": "00:00:51.3350000"
},
{
  "IsPitLap": false,
  "LapNumber": 48,
  "IsValid": true,
  "LapStartPosition": 27,
  "LapStartPositionClass": 27,
  "LapTime": "00:02:09.3070000",
  "Sector1": "00:00:27.5200000",
  "Sector2": "00:00:50.2500000",
  "Sector3": "00:00:51.5320000"
},
{
  "IsPitLap": false,
  "LapNumber": 49,
  "IsValid": true,
  "LapStartPosition": 27,
  "LapStartPositionClass": 27,
  "LapTime": "00:02:08.9400000",
  "Sector1": "00:00:27.3120000",
  "Sector2": "00:00:50.1350000",
  "Sector3": "00:00:51.4680000"
},
{
  "IsPitLap": false,
  "LapNumber": 50,
  "IsValid": true,
  "LapStartPosition": 27,
  "LapStartPositionClass": 27,
  "LapTime": "00:02:09.1200000",
  "Sector1": "00:00:27.4400000",
  "Sector2": "00:00:50.0520000",
  "Sector3": "00:00:51.6180000"
},
{
  "IsPitLap": false,
  "LapNumber": 51,
  "IsValid": true,
  "LapStartPosition": 27,
  "LapStartPositionClass": 27,
  "LapTime": "00:02:09.2570000",
  "Sector1": "00:00:27.3550000",
  "Sector2": "00:00:50.2350000",
  "Sector3": "00:00:51.6500000"
},
{
  "IsPitLap": false,
  "LapNumber": 52,
  "IsValid": true,
  "LapStartPosition": 27,
  "LapStartPositionClass": 27,
  "LapTime": "00:02:09.0650000",
  "Sector1": "00:00:27.3350000",
  "Sector2": "00:00:50.0050000",
  "Sector3": "00:00:51.7170000"
},
{
  "IsPitLap": false,
  "LapNumber": 53,
  "IsValid": true,
  "LapStartPosition": 26,
  "LapStartPositionClass": 26,
  "LapTime": "00:02:08.5250000",
  "Sector1": "00:00:27.2750000",
  "Sector2": "00:00:49.8670000",
  "Sector3": "00:00:51.3730000"
},
{
  "IsPitLap": false,
  "LapNumber": 54,
  "IsValid": true,
  "LapStartPosition": 26,
  "LapStartPositionClass": 26,
  "LapTime": "00:02:11",
  "Sector1": "00:00:28.2250000",
  "Sector2": "00:00:50.8670000",
  "Sector3": "00:00:51.8830000"
},
{
  "IsPitLap": false,
  "LapNumber": 55,
  "IsValid": true,
  "LapStartPosition": 24,
  "LapStartPositionClass": 24,
  "LapTime": "00:02:09.0620000",
  "Sector1": "00:00:27.2570000",
  "Sector2": "00:00:50.2680000",
  "Sector3": "00:00:51.5320000"
},
{
  "IsPitLap": false,
  "LapNumber": 56,
  "IsValid": false,
  "LapStartPosition": 24,
  "LapStartPositionClass": 24,
  "LapTime": "00:02:09.4720000",
  "Sector1": "00:00:27.6120000",
  "Sector2": "00:00:50.1680000",
  "Sector3": "00:00:51.6670000"
},
{
  "IsPitLap": false,
  "LapNumber": 57,
  "IsValid": true,
  "LapStartPosition": 24,
  "LapStartPositionClass": 24,
  "LapTime": "00:02:09.0400000",
  "Sector1": "00:00:27.2900000",
  "Sector2": "00:00:50.0350000",
  "Sector3": "00:00:51.7000000"
},
{
  "IsPitLap": false,
  "LapNumber": 58,
  "IsValid": true,
  "LapStartPosition": 23,
  "LapStartPositionClass": 23,
  "LapTime": "00:02:09.1500000",
  "Sector1": "00:00:27.6020000",
  "Sector2": "00:00:50.2030000",
  "Sector3": "00:00:51.3320000"
},
{
  "IsPitLap": false,
  "LapNumber": 59,
  "IsValid": true,
  "LapStartPosition": 22,
  "LapStartPositionClass": 22,
  "LapTime": "00:02:08.7300000",
  "Sector1": "00:00:27.2220000",
  "Sector2": "00:00:49.9330000",
  "Sector3": "00:00:51.5700000"
},
{
  "IsPitLap": true,
  "LapNumber": 60,
  "IsValid": true,
  "LapStartPosition": 22,
  "LapStartPositionClass": 22,
  "LapTime": "00:02:13.5150000",
  "Sector1": "00:00:27.5270000",
  "Sector2": "00:00:50.3350000",
  "Sector3": "00:00:55.6350000"
},
{
  "IsPitLap": true,
  "LapNumber": 61,
  "IsValid": false,
  "LapStartPosition": 20,
  "LapStartPositionClass": 20,
  "LapTime": "00:03:12.6100000",
  "Sector1": "00:01:31.4720000",
  "Sector2": "00:00:50.2000000",
  "Sector3": "00:00:50.8230000"
},
{
  "IsPitLap": false,
  "LapNumber": 62,
  "IsValid": true,
  "LapStartPosition": 25,
  "LapStartPositionClass": 25,
  "LapTime": "00:02:07.9020000",
  "Sector1": "00:00:26.9060000",
  "Sector2": "00:00:49.8170000",
  "Sector3": "00:00:51.0100000"
},
{
  "IsPitLap": false,
  "LapNumber": 63,
  "IsValid": true,
  "LapStartPosition": 25,
  "LapStartPositionClass": 25,
  "LapTime": "00:02:07.1600000",
  "Sector1": "00:00:26.6470000",
  "Sector2": "00:00:49.8100000",
  "Sector3": "00:00:50.4000000"
},
{
  "IsPitLap": false,
  "LapNumber": 64,
  "IsValid": true,
  "LapStartPosition": 25,
  "LapStartPositionClass": 25,
  "LapTime": "00:02:09.6570000",
  "Sector1": "00:00:26.6890000",
  "Sector2": "00:00:51.2080000",
  "Sector3": "00:00:51.6020000"
},
{
  "IsPitLap": false,
  "LapNumber": 65,
  "IsValid": true,
  "LapStartPosition": 25,
  "LapStartPositionClass": 25,
  "LapTime": "00:02:07.4620000",
  "Sector1": "00:00:26.8430000",
  "Sector2": "00:00:49.8000000",
  "Sector3": "00:00:50.6000000"
},
{
  "IsPitLap": false,
  "LapNumber": 66,
  "IsValid": true,
  "LapStartPosition": 25,
  "LapStartPositionClass": 25,
  "LapTime": "00:02:07.2400000",
  "Sector1": "00:00:26.7980000",
  "Sector2": "00:00:49.6050000",
  "Sector3": "00:00:50.6000000"
},
{
  "IsPitLap": false,
  "LapNumber": 67,
  "IsValid": true,
  "LapStartPosition": 25,
  "LapStartPositionClass": 25,
  "LapTime": "00:02:07.5250000",
  "Sector1": "00:00:26.7570000",
  "Sector2": "00:00:49.8000000",
  "Sector3": "00:00:50.6900000"
},
{
  "IsPitLap": false,
  "LapNumber": 68,
  "IsValid": true,
  "LapStartPosition": 25,
  "LapStartPositionClass": 25,
  "LapTime": "00:02:07.8900000",
  "Sector1": "00:00:26.7280000",
  "Sector2": "00:00:50.0030000",
  "Sector3": "00:00:51"
},
{
  "IsPitLap": false,
  "LapNumber": 69,
  "IsValid": true,
  "LapStartPosition": 25,
  "LapStartPositionClass": 25,
  "LapTime": "00:02:07.6820000",
  "Sector1": "00:00:26.8480000",
  "Sector2": "00:00:49.8000000",
  "Sector3": "00:00:50.8000000"
},
{
  "IsPitLap": false,
  "LapNumber": 70,
  "IsValid": true,
  "LapStartPosition": 25,
  "LapStartPositionClass": 25,
  "LapTime": "00:02:07.7720000",
  "Sector1": "00:00:26.8330000",
  "Sector2": "00:00:49.8000000",
  "Sector3": "00:00:51"
},
{
  "IsPitLap": false,
  "LapNumber": 71,
  "IsValid": true,
  "LapStartPosition": 25,
  "LapStartPositionClass": 25,
  "LapTime": "00:02:07.8220000",
  "Sector1": "00:00:26.7930000",
  "Sector2": "00:00:49.8600000",
  "Sector3": "00:00:50.8500000"
},
{
  "IsPitLap": false,
  "LapNumber": 72,
  "IsValid": true,
  "LapStartPosition": 25,
  "LapStartPositionClass": 25,
  "LapTime": "00:02:07.8170000",
  "Sector1": "00:00:26.6890000",
  "Sector2": "00:00:49.8000000",
  "Sector3": "00:00:51.2000000"
},
{
  "IsPitLap": false,
  "LapNumber": 73,
  "IsValid": true,
  "LapStartPosition": 25,
  "LapStartPositionClass": 25,
  "LapTime": "00:02:08.8400000",
  "Sector1": "00:00:26.8650000",
  "Sector2": "00:00:50.2000000",
  "Sector3": "00:00:51.6050000"
},
{
  "IsPitLap": false,
  "LapNumber": 74,
  "IsValid": true,
  "LapStartPosition": 25,
  "LapStartPositionClass": 25,
  "LapTime": "00:02:07.9600000",
  "Sector1": "00:00:26.8410000",
  "Sector2": "00:00:49.6000000",
  "Sector3": "00:00:51.2020000"
},
{
  "IsPitLap": false,
  "LapNumber": 75,
  "IsValid": true,
  "LapStartPosition": 25,
  "LapStartPositionClass": 25,
  "LapTime": "00:02:08.0600000",
  "Sector1": "00:00:26.9010000",
  "Sector2": "00:00:50",
  "Sector3": "00:00:51.0030000"
},
{
  "IsPitLap": false,
  "LapNumber": 76,
  "IsValid": true,
  "LapStartPosition": 25,
  "LapStartPositionClass": 25,
  "LapTime": "00:02:08.4000000",
  "Sector1": "00:00:27.0230000",
  "Sector2": "00:00:50.0020000",
  "Sector3": "00:00:51.2030000"
},
{
  "IsPitLap": false,
  "LapNumber": 77,
  "IsValid": true,
  "LapStartPosition": 24,
  "LapStartPositionClass": 24,
  "LapTime": "00:02:08.5450000",
  "Sector1": "00:00:26.8450000",
  "Sector2": "00:00:50.2020000",
  "Sector3": "00:00:51.2000000"
},
{
  "IsPitLap": false,
  "LapNumber": 78,
  "IsValid": true,
  "LapStartPosition": 24,
  "LapStartPositionClass": 24,
  "LapTime": "00:02:09.0570000",
  "Sector1": "00:00:27.5140000",
  "Sector2": "00:00:50.0020000",
  "Sector3": "00:00:51.4100000"
},
{
  "IsPitLap": false,
  "LapNumber": 79,
  "IsValid": true,
  "LapStartPosition": 24,
  "LapStartPositionClass": 24,
  "LapTime": "00:02:08.3220000",
  "Sector1": "00:00:26.8570000",
  "Sector2": "00:00:49.8000000",
  "Sector3": "00:00:51.4030000"
},
{
  "IsPitLap": false,
  "LapNumber": 80,
  "IsValid": true,
  "LapStartPosition": 24,
  "LapStartPositionClass": 24,
  "LapTime": "00:02:08.6450000",
  "Sector1": "00:00:26.9340000",
  "Sector2": "00:00:50.2150000",
  "Sector3": "00:00:51.2000000"
},
{
  "IsPitLap": false,
  "LapNumber": 81,
  "IsValid": true,
  "LapStartPosition": 24,
  "LapStartPositionClass": 24,
  "LapTime": "00:02:09.5850000",
  "Sector1": "00:00:27.1190000",
  "Sector2": "00:00:50.2020000",
  "Sector3": "00:00:52.0180000"
},
{
  "IsPitLap": false,
  "LapNumber": 82,
  "IsValid": true,
  "LapStartPosition": 25,
  "LapStartPositionClass": 25,
  "LapTime": "00:02:08.8520000",
  "Sector1": "00:00:27.1590000",
  "Sector2": "00:00:49.8000000",
  "Sector3": "00:00:51.6000000"
},
{
  "IsPitLap": false,
  "LapNumber": 83,
  "IsValid": true,
  "LapStartPosition": 25,
  "LapStartPositionClass": 25,
  "LapTime": "00:02:08.6420000",
  "Sector1": "00:00:26.9090000",
  "Sector2": "00:00:50.0030000",
  "Sector3": "00:00:51.6000000"
},
{
  "IsPitLap": false,
  "LapNumber": 84,
  "IsValid": true,
  "LapStartPosition": 25,
  "LapStartPositionClass": 25,
  "LapTime": "00:02:09.8250000",
  "Sector1": "00:00:27.6760000",
  "Sector2": "00:00:50.4030000",
  "Sector3": "00:00:51.6000000"
},
{
  "IsPitLap": false,
  "LapNumber": 85,
  "IsValid": true,
  "LapStartPosition": 25,
  "LapStartPositionClass": 25,
  "LapTime": "00:02:08.4370000",
  "Sector1": "00:00:26.8530000",
  "Sector2": "00:00:49.8050000",
  "Sector3": "00:00:51.6000000"
},
{
  "IsPitLap": false,
  "LapNumber": 86,
  "IsValid": true,
  "LapStartPosition": 24,
  "LapStartPositionClass": 24,
  "LapTime": "00:02:08.3070000",
  "Sector1": "00:00:26.6160000",
  "Sector2": "00:00:50.2000000",
  "Sector3": "00:00:51.2000000"
},
{
  "IsPitLap": false,
  "LapNumber": 87,
  "IsValid": true,
  "LapStartPosition": 24,
  "LapStartPositionClass": 24,
  "LapTime": "00:02:08.3900000",
  "Sector1": "00:00:26.7320000",
  "Sector2": "00:00:50.2000000",
  "Sector3": "00:00:51.2000000"
},
{
  "IsPitLap": false,
  "LapNumber": 88,
  "IsValid": true,
  "LapStartPosition": 24,
  "LapStartPositionClass": 24,
  "LapTime": "00:02:08.5450000",
  "Sector1": "00:00:26.9370000",
  "Sector2": "00:00:50.2020000",
  "Sector3": "00:00:51.2080000"
},
{
  "IsPitLap": false,
  "LapNumber": 89,
  "IsValid": true,
  "LapStartPosition": 23,
  "LapStartPositionClass": 23,
  "LapTime": "00:02:08.2970000",
  "Sector1": "00:00:26.8040000",
  "Sector2": "00:00:49.8000000",
  "Sector3": "00:00:51.4400000"
},
{
  "IsPitLap": true,
  "LapNumber": 90,
  "IsValid": false,
  "LapStartPosition": 23,
  "LapStartPositionClass": 23,
  "LapTime": "00:02:12.0020000",
  "Sector1": "00:00:26.7480000",
  "Sector2": "00:00:49.8000000",
  "Sector3": "00:00:55.2000000"
},
{
  "IsPitLap": true,
  "LapNumber": 91,
  "IsValid": true,
  "LapStartPosition": 20,
  "LapStartPositionClass": 20,
  "LapTime": "00:03:09.5470000",
  "Sector1": "00:01:27.5020000",
  "Sector2": "00:00:50.3620000",
  "Sector3": "00:00:51.6680000"
},
{
  "IsPitLap": false,
  "LapNumber": 92,
  "IsValid": true,
  "LapStartPosition": 26,
  "LapStartPositionClass": 26,
  "LapTime": "00:02:09.6900000",
  "Sector1": "00:00:27.4170000",
  "Sector2": "00:00:50.1680000",
  "Sector3": "00:00:52.1000000"
},
{
  "IsPitLap": false,
  "LapNumber": 93,
  "IsValid": true,
  "LapStartPosition": 26,
  "LapStartPositionClass": 26,
  "LapTime": "00:02:09.2870000",
  "Sector1": "00:00:27.9970000",
  "Sector2": "00:00:50.0180000",
  "Sector3": "00:00:51.2500000"
},
{
  "IsPitLap": false,
  "LapNumber": 94,
  "IsValid": true,
  "LapStartPosition": 26,
  "LapStartPositionClass": 26,
  "LapTime": "00:02:07.8300000",
  "Sector1": "00:00:27.1450000",
  "Sector2": "00:00:49.7820000",
  "Sector3": "00:00:50.8680000"
},
{
  "IsPitLap": false,
  "LapNumber": 95,
  "IsValid": true,
  "LapStartPosition": 26,
  "LapStartPositionClass": 26,
  "LapTime": "00:02:08.3520000",
  "Sector1": "00:00:27.2150000",
  "Sector2": "00:00:49.9350000",
  "Sector3": "00:00:51.1870000"
},
{
  "IsPitLap": false,
  "LapNumber": 96,
  "IsValid": true,
  "LapStartPosition": 26,
  "LapStartPositionClass": 26,
  "LapTime": "00:02:08.0520000",
  "Sector1": "00:00:27.3670000",
  "Sector2": "00:00:49.9000000",
  "Sector3": "00:00:50.7680000"
},
{
  "IsPitLap": false,
  "LapNumber": 97,
  "IsValid": true,
  "LapStartPosition": 26,
  "LapStartPositionClass": 26,
  "LapTime": "00:02:09.1820000",
  "Sector1": "00:00:27.2150000",
  "Sector2": "00:00:49.7670000",
  "Sector3": "00:00:52.1850000"
},
{
  "IsPitLap": false,
  "LapNumber": 98,
  "IsValid": true,
  "LapStartPosition": 26,
  "LapStartPositionClass": 26,
  "LapTime": "00:02:07.7070000",
  "Sector1": "00:00:27.1700000",
  "Sector2": "00:00:49.6670000",
  "Sector3": "00:00:50.8500000"
},
{
  "IsPitLap": false,
  "LapNumber": 99,
  "IsValid": true,
  "LapStartPosition": 26,
  "LapStartPositionClass": 26,
  "LapTime": "00:02:08.5400000",
  "Sector1": "00:00:27.2800000",
  "Sector2": "00:00:49.9670000",
  "Sector3": "00:00:51.2830000"
},
{
  "IsPitLap": false,
  "LapNumber": 100,
  "IsValid": true,
  "LapStartPosition": 26,
  "LapStartPositionClass": 26,
  "LapTime": "00:02:09.6070000",
  "Sector1": "00:00:27.5070000",
  "Sector2": "00:00:51.1200000",
  "Sector3": "00:00:50.9650000"
},
{
  "IsPitLap": false,
  "LapNumber": 101,
  "IsValid": true,
  "LapStartPosition": 26,
  "LapStartPositionClass": 26,
  "LapTime": "00:02:10.8420000",
  "Sector1": "00:00:27.2370000",
  "Sector2": "00:00:49.9730000",
  "Sector3": "00:00:53.6000000"
},
{
  "IsPitLap": false,
  "LapNumber": 102,
  "IsValid": true,
  "LapStartPosition": 26,
  "LapStartPositionClass": 26,
  "LapTime": "00:02:08.8250000",
  "Sector1": "00:00:27.5850000",
  "Sector2": "00:00:49.9650000",
  "Sector3": "00:00:51.2670000"
},
{
  "IsPitLap": false,
  "LapNumber": 103,
  "IsValid": true,
  "LapStartPosition": 26,
  "LapStartPositionClass": 26,
  "LapTime": "00:02:09.7650000",
  "Sector1": "00:00:27.2420000",
  "Sector2": "00:00:50.5530000",
  "Sector3": "00:00:51.9500000"
},
{
  "IsPitLap": false,
  "LapNumber": 104,
  "IsValid": true,
  "LapStartPosition": 26,
  "LapStartPositionClass": 26,
  "LapTime": "00:02:09.4470000",
  "Sector1": "00:00:27.7970000",
  "Sector2": "00:00:50.3500000",
  "Sector3": "00:00:51.2830000"
},
{
  "IsPitLap": false,
  "LapNumber": 105,
  "IsValid": true,
  "LapStartPosition": 25,
  "LapStartPositionClass": 25,
  "LapTime": "00:02:08.9500000",
  "Sector1": "00:00:27.2000000",
  "Sector2": "00:00:50.0670000",
  "Sector3": "00:00:51.6680000"
},
{
  "IsPitLap": false,
  "LapNumber": 106,
  "IsValid": true,
  "LapStartPosition": 25,
  "LapStartPositionClass": 25,
  "LapTime": "00:02:08.3250000",
  "Sector1": "00:00:27.4200000",
  "Sector2": "00:00:49.8650000",
  "Sector3": "00:00:51.0200000"
},
{
  "IsPitLap": false,
  "LapNumber": 107,
  "IsValid": true,
  "LapStartPosition": 25,
  "LapStartPositionClass": 25,
  "LapTime": "00:02:08.6900000",
  "Sector1": "00:00:27.2800000",
  "Sector2": "00:00:50.0820000",
  "Sector3": "00:00:51.3000000"
},
{
  "IsPitLap": false,
  "LapNumber": 108,
  "IsValid": true,
  "LapStartPosition": 25,
  "LapStartPositionClass": 25,
  "LapTime": "00:02:08.7720000",
  "Sector1": "00:00:27.4070000",
  "Sector2": "00:00:49.9680000",
  "Sector3": "00:00:51.3820000"
},
{
  "IsPitLap": false,
  "LapNumber": 109,
  "IsValid": true,
  "LapStartPosition": 25,
  "LapStartPositionClass": 25,
  "LapTime": "00:02:09.1050000",
  "Sector1": "00:00:27.6020000",
  "Sector2": "00:00:50.2500000",
  "Sector3": "00:00:51.2180000"
},
{
  "IsPitLap": false,
  "LapNumber": 110,
  "IsValid": false,
  "LapStartPosition": 25,
  "LapStartPositionClass": 25,
  "LapTime": "00:02:09.3270000",
  "Sector1": "00:00:27.2320000",
  "Sector2": "00:00:50.1680000",
  "Sector3": "00:00:51.9170000"
},
{
  "IsPitLap": false,
  "LapNumber": 111,
  "IsValid": true,
  "LapStartPosition": 25,
  "LapStartPositionClass": 25,
  "LapTime": "00:02:08.5670000",
  "Sector1": "00:00:27.3320000",
  "Sector2": "00:00:50.0680000",
  "Sector3": "00:00:51.1650000"
},
{
  "IsPitLap": false,
  "LapNumber": 112,
  "IsValid": true,
  "LapStartPosition": 25,
  "LapStartPositionClass": 25,
  "LapTime": "00:02:09.1820000",
  "Sector1": "00:00:27.3150000",
  "Sector2": "00:00:50.2670000",
  "Sector3": "00:00:51.5680000"
},
{
  "IsPitLap": false,
  "LapNumber": 113,
  "IsValid": true,
  "LapStartPosition": 25,
  "LapStartPositionClass": 25,
  "LapTime": "00:02:09.2950000",
  "Sector1": "00:00:27.3500000",
  "Sector2": "00:00:50.8170000",
  "Sector3": "00:00:51.1200000"
},
{
  "IsPitLap": false,
  "LapNumber": 114,
  "IsValid": true,
  "LapStartPosition": 25,
  "LapStartPositionClass": 25,
  "LapTime": "00:02:08.3050000",
  "Sector1": "00:00:27.3250000",
  "Sector2": "00:00:49.8350000",
  "Sector3": "00:00:51.1150000"
},
{
  "IsPitLap": false,
  "LapNumber": 115,
  "IsValid": true,
  "LapStartPosition": 25,
  "LapStartPositionClass": 25,
  "LapTime": "00:02:08.5800000",
  "Sector1": "00:00:27.2550000",
  "Sector2": "00:00:50.0650000",
  "Sector3": "00:00:51.2520000"
},
{
  "IsPitLap": false,
  "LapNumber": 116,
  "IsValid": true,
  "LapStartPosition": 25,
  "LapStartPositionClass": 25,
  "LapTime": "00:02:08.3020000",
  "Sector1": "00:00:27.2570000",
  "Sector2": "00:00:49.8200000",
  "Sector3": "00:00:51.2150000"
},
{
  "IsPitLap": false,
  "LapNumber": 117,
  "IsValid": true,
  "LapStartPosition": 25,
  "LapStartPositionClass": 25,
  "LapTime": "00:02:09.0720000",
  "Sector1": "00:00:27.5570000",
  "Sector2": "00:00:49.9500000",
  "Sector3": "00:00:51.5500000"
},
{
  "IsPitLap": false,
  "LapNumber": 118,
  "IsValid": true,
  "LapStartPosition": 25,
  "LapStartPositionClass": 25,
  "LapTime": "00:02:10.1170000",
  "Sector1": "00:00:27.2200000",
  "Sector2": "00:00:50.1350000",
  "Sector3": "00:00:52.7320000"
},
{
  "IsPitLap": false,
  "LapNumber": 119,
  "IsValid": true,
  "LapStartPosition": 25,
  "LapStartPositionClass": 25,
  "LapTime": "00:02:08.4050000",
  "Sector1": "00:00:27.1870000",
  "Sector2": "00:00:50.0350000",
  "Sector3": "00:00:51.1500000"
},
{
  "IsPitLap": true,
  "LapNumber": 120,
  "IsValid": true,
  "LapStartPosition": 25,
  "LapStartPositionClass": 25,
  "LapTime": "00:02:12.7470000",
  "Sector1": "00:00:27.3350000",
  "Sector2": "00:00:49.9850000",
  "Sector3": "00:00:55.4000000"
},
{
  "IsPitLap": true,
  "LapNumber": 121,
  "IsValid": false,
  "LapStartPosition": 24,
  "LapStartPositionClass": 24,
  "LapTime": "00:03:08.9900000",
  "Sector1": "00:01:27.1470000",
  "Sector2": "00:00:50.2050000",
  "Sector3": "00:00:51.6050000"
},
{
  "IsPitLap": false,
  "LapNumber": 122,
  "IsValid": true,
  "LapStartPosition": 25,
  "LapStartPositionClass": 25,
  "LapTime": "00:02:09.0650000",
  "Sector1": "00:00:27.1160000",
  "Sector2": "00:00:50.0070000",
  "Sector3": "00:00:51.8050000"
},
{
  "IsPitLap": false,
  "LapNumber": 123,
  "IsValid": true,
  "LapStartPosition": 25,
  "LapStartPositionClass": 25,
  "LapTime": "00:02:09.0300000",
  "Sector1": "00:00:27.0320000",
  "Sector2": "00:00:50.2000000",
  "Sector3": "00:00:51.6000000"
},
{
  "IsPitLap": false,
  "LapNumber": 124,
  "IsValid": true,
  "LapStartPosition": 25,
  "LapStartPositionClass": 25,
  "LapTime": "00:02:08.5070000",
  "Sector1": "00:00:27.1730000",
  "Sector2": "00:00:49.8030000",
  "Sector3": "00:00:51.4000000"
},
{
  "IsPitLap": false,
  "LapNumber": 125,
  "IsValid": true,
  "LapStartPosition": 25,
  "LapStartPositionClass": 25,
  "LapTime": "00:02:08.9370000",
  "Sector1": "00:00:27.0650000",
  "Sector2": "00:00:49.8000000",
  "Sector3": "00:00:52.0020000"
},
{
  "IsPitLap": false,
  "LapNumber": 126,
  "IsValid": true,
  "LapStartPosition": 25,
  "LapStartPositionClass": 25,
  "LapTime": "00:02:08.6150000",
  "Sector1": "00:00:27.1310000",
  "Sector2": "00:00:49.4000000",
  "Sector3": "00:00:52"
},
{
  "IsPitLap": false,
  "LapNumber": 127,
  "IsValid": true,
  "LapStartPosition": 25,
  "LapStartPositionClass": 25,
  "LapTime": "00:02:08.0900000",
  "Sector1": "00:00:26.9210000",
  "Sector2": "00:00:49.6000000",
  "Sector3": "00:00:51.4000000"
},
{
  "IsPitLap": false,
  "LapNumber": 128,
  "IsValid": true,
  "LapStartPosition": 25,
  "LapStartPositionClass": 25,
  "LapTime": "00:02:09.1000000",
  "Sector1": "00:00:27.0350000",
  "Sector2": "00:00:50",
  "Sector3": "00:00:52.0020000"
},
{
  "IsPitLap": false,
  "LapNumber": 129,
  "IsValid": true,
  "LapStartPosition": 25,
  "LapStartPositionClass": 25,
  "LapTime": "00:02:08.3020000",
  "Sector1": "00:00:26.7420000",
  "Sector2": "00:00:50",
  "Sector3": "00:00:51.4000000"
},
{
  "IsPitLap": false,
  "LapNumber": 130,
  "IsValid": true,
  "LapStartPosition": 25,
  "LapStartPositionClass": 25,
  "LapTime": "00:02:08.0200000",
  "Sector1": "00:00:26.8310000",
  "Sector2": "00:00:49.6000000",
  "Sector3": "00:00:51.4500000"
},
{
  "IsPitLap": false,
  "LapNumber": 131,
  "IsValid": true,
  "LapStartPosition": 25,
  "LapStartPositionClass": 25,
  "LapTime": "00:02:10.0920000",
  "Sector1": "00:00:27.8640000",
  "Sector2": "00:00:50.6000000",
  "Sector3": "00:00:51.4000000"
},
{
  "IsPitLap": false,
  "LapNumber": 132,
  "IsValid": true,
  "LapStartPosition": 25,
  "LapStartPositionClass": 25,
  "LapTime": "00:02:08.6650000",
  "Sector1": "00:00:26.9860000",
  "Sector2": "00:00:49.8020000",
  "Sector3": "00:00:51.8000000"
},
{
  "IsPitLap": false,
  "LapNumber": 133,
  "IsValid": true,
  "LapStartPosition": 25,
  "LapStartPositionClass": 25,
  "LapTime": "00:02:08.7750000",
  "Sector1": "00:00:26.9280000",
  "Sector2": "00:00:49.8030000",
  "Sector3": "00:00:51.8000000"
},
{
  "IsPitLap": false,
  "LapNumber": 134,
  "IsValid": true,
  "LapStartPosition": 25,
  "LapStartPositionClass": 25,
  "LapTime": "00:02:09.1350000",
  "Sector1": "00:00:27.5770000",
  "Sector2": "00:00:50",
  "Sector3": "00:00:51.4020000"
},
{
  "IsPitLap": false,
  "LapNumber": 135,
  "IsValid": true,
  "LapStartPosition": 25,
  "LapStartPositionClass": 25,
  "LapTime": "00:02:08.5620000",
  "Sector1": "00:00:27.0310000",
  "Sector2": "00:00:50.0030000",
  "Sector3": "00:00:51.4000000"
},
{
  "IsPitLap": false,
  "LapNumber": 136,
  "IsValid": true,
  "LapStartPosition": 25,
  "LapStartPositionClass": 25,
  "LapTime": "00:02:09.1700000",
  "Sector1": "00:00:27.0580000",
  "Sector2": "00:00:50.2000000",
  "Sector3": "00:00:51.8020000"
},
{
  "IsPitLap": false,
  "LapNumber": 137,
  "IsValid": true,
  "LapStartPosition": 25,
  "LapStartPositionClass": 25,
  "LapTime": "00:02:08.8720000",
  "Sector1": "00:00:27.0730000",
  "Sector2": "00:00:49.8000000",
  "Sector3": "00:00:51.8000000"
},
{
  "IsPitLap": false,
  "LapNumber": 138,
  "IsValid": true,
  "LapStartPosition": 25,
  "LapStartPositionClass": 25,
  "LapTime": "00:02:08.3120000",
  "Sector1": "00:00:26.8320000",
  "Sector2": "00:00:50.0030000",
  "Sector3": "00:00:51.4000000"
},
{
  "IsPitLap": false,
  "LapNumber": 139,
  "IsValid": true,
  "LapStartPosition": 25,
  "LapStartPositionClass": 25,
  "LapTime": "00:02:09.0670000",
  "Sector1": "00:00:26.7170000",
  "Sector2": "00:00:50.2000000",
  "Sector3": "00:00:52"
},
{
  "IsPitLap": false,
  "LapNumber": 140,
  "IsValid": true,
  "LapStartPosition": 25,
  "LapStartPositionClass": 25,
  "LapTime": "00:02:09.6350000",
  "Sector1": "00:00:27.6700000",
  "Sector2": "00:00:50.0020000",
  "Sector3": "00:00:51.8450000"
},
{
  "IsPitLap": false,
  "LapNumber": 141,
  "IsValid": true,
  "LapStartPosition": 25,
  "LapStartPositionClass": 25,
  "LapTime": "00:02:08.4720000",
  "Sector1": "00:00:26.8510000",
  "Sector2": "00:00:50",
  "Sector3": "00:00:51.4030000"
},
{
  "IsPitLap": false,
  "LapNumber": 142,
  "IsValid": true,
  "LapStartPosition": 25,
  "LapStartPositionClass": 25,
  "LapTime": "00:02:08.4970000",
  "Sector1": "00:00:26.7980000",
  "Sector2": "00:00:49.8000000",
  "Sector3": "00:00:51.8020000"
},
{
  "IsPitLap": false,
  "LapNumber": 143,
  "IsValid": true,
  "LapStartPosition": 25,
  "LapStartPositionClass": 25,
  "LapTime": "00:02:08.5250000",
  "Sector1": "00:00:26.9030000",
  "Sector2": "00:00:49.8030000",
  "Sector3": "00:00:51.6120000"
},
{
  "IsPitLap": false,
  "LapNumber": 144,
  "IsValid": true,
  "LapStartPosition": 25,
  "LapStartPositionClass": 25,
  "LapTime": "00:02:08.8270000",
  "Sector1": "00:00:26.8200000",
  "Sector2": "00:00:50.2020000",
  "Sector3": "00:00:51.6000000"
},
{
  "IsPitLap": false,
  "LapNumber": 145,
  "IsValid": true,
  "LapStartPosition": 25,
  "LapStartPositionClass": 25,
  "LapTime": "00:02:08.6100000",
  "Sector1": "00:00:26.7910000",
  "Sector2": "00:00:50.2030000",
  "Sector3": "00:00:51.4000000"
},
{
  "IsPitLap": false,
  "LapNumber": 146,
  "IsValid": true,
  "LapStartPosition": 25,
  "LapStartPositionClass": 25,
  "LapTime": "00:02:08.2000000",
  "Sector1": "00:00:26.7880000",
  "Sector2": "00:00:50",
  "Sector3": "00:00:51.2000000"
},
{
  "IsPitLap": false,
  "LapNumber": 147,
  "IsValid": true,
  "LapStartPosition": 25,
  "LapStartPositionClass": 25,
  "LapTime": "00:02:08.5320000",
  "Sector1": "00:00:26.9830000",
  "Sector2": "00:00:49.8000000",
  "Sector3": "00:00:51.6000000"
},
{
  "IsPitLap": false,
  "LapNumber": 148,
  "IsValid": true,
  "LapStartPosition": 25,
  "LapStartPositionClass": 25,
  "LapTime": "00:02:09.1770000",
  "Sector1": "00:00:26.6650000",
  "Sector2": "00:00:50.4150000",
  "Sector3": "00:00:51.8750000"
},
{
  "IsPitLap": true,
  "LapNumber": 149,
  "IsValid": false,
  "LapStartPosition": 25,
  "LapStartPositionClass": 25,
  "LapTime": "00:02:12.7000000",
  "Sector1": "00:00:26.7720000",
  "Sector2": "00:00:50.3550000",
  "Sector3": "00:00:55.2800000"
},
{
  "IsPitLap": true,
  "LapNumber": 150,
  "IsValid": false,
  "LapStartPosition": 25,
  "LapStartPositionClass": 25,
  "LapTime": "00:02:38.3570000",
  "Sector1": "00:00:51.9140000",
  "Sector2": "00:00:50.2020000",
  "Sector3": "00:00:56.0030000"
},
{
  "IsPitLap": true,
  "LapNumber": 151,
  "IsValid": false,
  "LapStartPosition": 25,
  "LapStartPositionClass": 25,
  "LapTime": "00:03:12.3520000",
  "Sector1": "00:01:24.3620000",
  "Sector2": "00:00:50.4020000",
  "Sector3": "00:00:57.4050000"
},
{
  "IsPitLap": true,
  "LapNumber": 152,
  "IsValid": false,
  "LapStartPosition": 27,
  "LapStartPositionClass": 27,
  "LapTime": "00:02:43.9000000",
  "Sector1": "00:00:53.2140000",
  "Sector2": "00:00:52.8150000",
  "Sector3": "00:00:57.6030000"
},
{
  "IsPitLap": true,
  "LapNumber": 153,
  "IsValid": false,
  "LapStartPosition": 28,
  "LapStartPositionClass": 28,
  "LapTime": "00:03:10.7070000",
  "Sector1": "00:01:28.3500000",
  "Sector2": "00:00:50.8000000",
  "Sector3": "00:00:51.4150000"
},
{
  "IsPitLap": false,
  "LapNumber": 154,
  "IsValid": true,
  "LapStartPosition": 28,
  "LapStartPositionClass": 28,
  "LapTime": "00:02:08.7350000",
  "Sector1": "00:00:27.0890000",
  "Sector2": "00:00:50.0020000",
  "Sector3": "00:00:51.4000000"
},
{
  "IsPitLap": false,
  "LapNumber": 155,
  "IsValid": false,
  "LapStartPosition": 28,
  "LapStartPositionClass": 28,
  "LapTime": "00:02:08.8700000",
  "Sector1": "00:00:27.1560000",
  "Sector2": "00:00:50.0120000",
  "Sector3": "00:00:51.6000000"
},
{
  "IsPitLap": false,
  "LapNumber": 156,
  "IsValid": true,
  "LapStartPosition": 28,
  "LapStartPositionClass": 28,
  "LapTime": "00:02:07.4600000",
  "Sector1": "00:00:26.7000000",
  "Sector2": "00:00:49.8000000",
  "Sector3": "00:00:50.8000000"
},
{
  "IsPitLap": false,
  "LapNumber": 157,
  "IsValid": false,
  "LapStartPosition": 28,
  "LapStartPositionClass": 28,
  "LapTime": "00:02:08.5100000",
  "Sector1": "00:00:26.8320000",
  "Sector2": "00:00:49.8030000",
  "Sector3": "00:00:51.8000000"
},
{
  "IsPitLap": false,
  "LapNumber": 158,
  "IsValid": false,
  "LapStartPosition": 28,
  "LapStartPositionClass": 28,
  "LapTime": "00:02:08.7370000",
  "Sector1": "00:00:27.1180000",
  "Sector2": "00:00:50.4020000",
  "Sector3": "00:00:51"
},
{
  "IsPitLap": false,
  "LapNumber": 159,
  "IsValid": false,
  "LapStartPosition": 28,
  "LapStartPositionClass": 28,
  "LapTime": "00:02:08.2500000",
  "Sector1": "00:00:26.8130000",
  "Sector2": "00:00:50",
  "Sector3": "00:00:51.2020000"
},
{
  "IsPitLap": false,
  "LapNumber": 160,
  "IsValid": true,
  "LapStartPosition": 28,
  "LapStartPositionClass": 28,
  "LapTime": "00:02:08.1370000",
  "Sector1": "00:00:26.9730000",
  "Sector2": "00:00:49.8020000",
  "Sector3": "00:00:51.2030000"
},
{
  "IsPitLap": false,
  "LapNumber": 161,
  "IsValid": true,
  "LapStartPosition": 28,
  "LapStartPositionClass": 28,
  "LapTime": "00:02:08.1200000",
  "Sector1": "00:00:26.8330000",
  "Sector2": "00:00:50",
  "Sector3": "00:00:51.2000000"
},
{
  "IsPitLap": false,
  "LapNumber": 162,
  "IsValid": false,
  "LapStartPosition": 28,
  "LapStartPositionClass": 28,
  "LapTime": "00:02:08.2370000",
  "Sector1": "00:00:26.7190000",
  "Sector2": "00:00:50.2030000",
  "Sector3": "00:00:51.2000000"
},
{
  "IsPitLap": false,
  "LapNumber": 163,
  "IsValid": false,
  "LapStartPosition": 28,
  "LapStartPositionClass": 28,
  "LapTime": "00:02:08.5650000",
  "Sector1": "00:00:26.8830000",
  "Sector2": "00:00:50.4000000",
  "Sector3": "00:00:51.2020000"
},
{
  "IsPitLap": false,
  "LapNumber": 164,
  "IsValid": true,
  "LapStartPosition": 27,
  "LapStartPositionClass": 28,
  "LapTime": "00:02:08.3150000",
  "Sector1": "00:00:26.9160000",
  "Sector2": "00:00:50",
  "Sector3": "00:00:51.2030000"
},
{
  "IsPitLap": false,
  "LapNumber": 165,
  "IsValid": true,
  "LapStartPosition": 27,
  "LapStartPositionClass": 28,
  "LapTime": "00:02:08.4850000",
  "Sector1": "00:00:26.8030000",
  "Sector2": "00:00:50.0500000",
  "Sector3": "00:00:51.4120000"
},
{
  "IsPitLap": false,
  "LapNumber": 166,
  "IsValid": true,
  "LapStartPosition": 28,
  "LapStartPositionClass": 28,
  "LapTime": "00:02:08.0200000",
  "Sector1": "00:00:26.7900000",
  "Sector2": "00:00:49.8030000",
  "Sector3": "00:00:51.2000000"
},
{
  "IsPitLap": false,
  "LapNumber": 167,
  "IsValid": false,
  "LapStartPosition": 28,
  "LapStartPositionClass": 28,
  "LapTime": "00:02:08.9020000",
  "Sector1": "00:00:26.9550000",
  "Sector2": "00:00:50.4020000",
  "Sector3": "00:00:51.4030000"
},
{
  "IsPitLap": false,
  "LapNumber": 168,
  "IsValid": true,
  "LapStartPosition": 28,
  "LapStartPositionClass": 28,
  "LapTime": "00:02:08.4720000",
  "Sector1": "00:00:26.8740000",
  "Sector2": "00:00:50",
  "Sector3": "00:00:51.4030000"
},
{
  "IsPitLap": false,
  "LapNumber": 169,
  "IsValid": true,
  "LapStartPosition": 27,
  "LapStartPositionClass": 27,
  "LapTime": "00:02:08.6550000",
  "Sector1": "00:00:26.8130000",
  "Sector2": "00:00:50.0020000",
  "Sector3": "00:00:51.6030000"
},
{
  "IsPitLap": false,
  "LapNumber": 170,
  "IsValid": false,
  "LapStartPosition": 27,
  "LapStartPositionClass": 27,
  "LapTime": "00:02:09.1870000",
  "Sector1": "00:00:26.9720000",
  "Sector2": "00:00:50.0120000",
  "Sector3": "00:00:52.0750000"
},
{
  "IsPitLap": false,
  "LapNumber": 171,
  "IsValid": true,
  "LapStartPosition": 27,
  "LapStartPositionClass": 27,
  "LapTime": "00:02:08.3200000",
  "Sector1": "00:00:26.8660000",
  "Sector2": "00:00:50",
  "Sector3": "00:00:51.2000000"
},
{
  "IsPitLap": false,
  "LapNumber": 172,
  "IsValid": true,
  "LapStartPosition": 27,
  "LapStartPositionClass": 27,
  "LapTime": "00:02:08.5050000",
  "Sector1": "00:00:26.9540000",
  "Sector2": "00:00:50.0020000",
  "Sector3": "00:00:51.4000000"
},
{
  "IsPitLap": false,
  "LapNumber": 173,
  "IsValid": false,
  "LapStartPosition": 27,
  "LapStartPositionClass": 27,
  "LapTime": "00:02:08.7220000",
  "Sector1": "00:00:26.8430000",
  "Sector2": "00:00:50.0030000",
  "Sector3": "00:00:51.8050000"
},
{
  "IsPitLap": false,
  "LapNumber": 174,
  "IsValid": false,
  "LapStartPosition": 27,
  "LapStartPositionClass": 27,
  "LapTime": "00:02:08.5970000",
  "Sector1": "00:00:26.9300000",
  "Sector2": "00:00:50.4000000",
  "Sector3": "00:00:51.2020000"
},
{
  "IsPitLap": false,
  "LapNumber": 175,
  "IsValid": true,
  "LapStartPosition": 27,
  "LapStartPositionClass": 27,
  "LapTime": "00:02:09.7770000",
  "Sector1": "00:00:26.7280000",
  "Sector2": "00:00:51.2000000",
  "Sector3": "00:00:51.6000000"
},
{
  "IsPitLap": false,
  "LapNumber": 176,
  "IsValid": true,
  "LapStartPosition": 27,
  "LapStartPositionClass": 27,
  "LapTime": "00:02:10.3250000",
  "Sector1": "00:00:27.3530000",
  "Sector2": "00:00:50.6030000",
  "Sector3": "00:00:52.2050000"
},
{
  "IsPitLap": false,
  "LapNumber": 177,
  "IsValid": false,
  "LapStartPosition": 26,
  "LapStartPositionClass": 26,
  "LapTime": "00:02:09.6520000",
  "Sector1": "00:00:26.8340000",
  "Sector2": "00:00:50.6000000",
  "Sector3": "00:00:52"
},
{
  "IsPitLap": true,
  "LapNumber": 178,
  "IsValid": false,
  "LapStartPosition": 26,
  "LapStartPositionClass": 26,
  "LapTime": "00:02:13.6200000",
  "Sector1": "00:00:26.7830000",
  "Sector2": "00:00:50.0100000",
  "Sector3": "00:00:56.6030000"
},
{
  "IsPitLap": true,
  "LapNumber": 179,
  "IsValid": false,
  "LapStartPosition": 26,
  "LapStartPositionClass": 27,
  "LapTime": "00:02:49.7020000",
  "Sector1": "00:01:07.8220000",
  "Sector2": "00:00:49.8550000",
  "Sector3": "00:00:51.8000000"
},
{
  "IsPitLap": false,
  "LapNumber": 180,
  "IsValid": true,
  "LapStartPosition": 28,
  "LapStartPositionClass": 28,
  "LapTime": "00:02:09.3600000",
  "Sector1": "00:00:26.9840000",
  "Sector2": "00:00:50.2000000",
  "Sector3": "00:00:52.0100000"
},
{
  "IsPitLap": false,
  "LapNumber": 181,
  "IsValid": false,
  "LapStartPosition": 26,
  "LapStartPositionClass": 27,
  "LapTime": "00:02:09.5200000",
  "Sector1": "00:00:27.0270000",
  "Sector2": "00:00:50.4270000",
  "Sector3": "00:00:52.0030000"
},
{
  "IsPitLap": false,
  "LapNumber": 182,
  "IsValid": true,
  "LapStartPosition": 26,
  "LapStartPositionClass": 27,
  "LapTime": "00:02:10.8320000",
  "Sector1": "00:00:27.9450000",
  "Sector2": "00:00:50.6000000",
  "Sector3": "00:00:52.2050000"
},
{
  "IsPitLap": false,
  "LapNumber": 183,
  "IsValid": true,
  "LapStartPosition": 26,
  "LapStartPositionClass": 27,
  "LapTime": "00:02:09.4800000",
  "Sector1": "00:00:27.1100000",
  "Sector2": "00:00:50.4020000",
  "Sector3": "00:00:51.8050000"
},
{
  "IsPitLap": false,
  "LapNumber": 184,
  "IsValid": false,
  "LapStartPosition": 26,
  "LapStartPositionClass": 27,
  "LapTime": "00:02:10.5520000",
  "Sector1": "00:00:27.0360000",
  "Sector2": "00:00:50.2000000",
  "Sector3": "00:00:53.2030000"
},
{
  "IsPitLap": false,
  "LapNumber": 185,
  "IsValid": false,
  "LapStartPosition": 26,
  "LapStartPositionClass": 27,
  "LapTime": "00:02:08.8750000",
  "Sector1": "00:00:27.0810000",
  "Sector2": "00:00:50",
  "Sector3": "00:00:51.6070000"
},
{
  "IsPitLap": false,
  "LapNumber": 186,
  "IsValid": true,
  "LapStartPosition": 26,
  "LapStartPositionClass": 27,
  "LapTime": "00:02:09.2350000",
  "Sector1": "00:00:27.2110000",
  "Sector2": "00:00:50.0030000",
  "Sector3": "00:00:51.8020000"
},
{
  "IsPitLap": true,
  "LapNumber": 187,
  "IsValid": false,
  "LapStartPosition": 26,
  "LapStartPositionClass": 27,
  "LapTime": "00:02:17.7350000",
  "Sector1": "00:00:26.9790000",
  "Sector2": "00:00:52.2000000",
  "Sector3": "00:00:58.4150000"
},
{
  "IsPitLap": true,
  "LapNumber": 188,
  "IsValid": false,
  "LapStartPosition": 26,
  "LapStartPositionClass": 27,
  "LapTime": "00:02:46.3220000",
  "Sector1": "00:00:52.4570000",
  "Sector2": "00:00:53.4100000",
  "Sector3": "00:01:00.2020000"
},
{
  "IsPitLap": true,
  "LapNumber": 189,
  "IsValid": false,
  "LapStartPosition": 26,
  "LapStartPositionClass": 27,
  "LapTime": "00:03:20.5400000",
  "Sector1": "00:01:29.3540000",
  "Sector2": "00:00:54",
  "Sector3": "00:00:57.0020000"
},
{
  "IsPitLap": false,
  "LapNumber": 190,
  "IsValid": true,
  "LapStartPosition": 27,
  "LapStartPositionClass": 28,
  "LapTime": "00:02:17.5000000",
  "Sector1": "00:00:28.5220000",
  "Sector2": "00:00:53.4000000",
  "Sector3": "00:00:55.4030000"
},
{
  "IsPitLap": false,
  "LapNumber": 191,
  "IsValid": false,
  "LapStartPosition": 26,
  "LapStartPositionClass": 27,
  "LapTime": "00:02:19.4900000",
  "Sector1": "00:00:28.9990000",
  "Sector2": "00:00:53.2000000",
  "Sector3": "00:00:57"
},
{
  "IsPitLap": false,
  "LapNumber": 192,
  "IsValid": true,
  "LapStartPosition": 26,
  "LapStartPositionClass": 27,
  "LapTime": "00:02:17.6520000",
  "Sector1": "00:00:28.5120000",
  "Sector2": "00:00:53.4000000",
  "Sector3": "00:00:55.6030000"
},
{
  "IsPitLap": false,
  "LapNumber": 193,
  "IsValid": true,
  "LapStartPosition": 26,
  "LapStartPositionClass": 27,
  "LapTime": "00:02:17.3620000",
  "Sector1": "00:00:28.4720000",
  "Sector2": "00:00:53.4000000",
  "Sector3": "00:00:55.2000000"
},
{
  "IsPitLap": false,
  "LapNumber": 194,
  "IsValid": false,
  "LapStartPosition": 26,
  "LapStartPositionClass": 27,
  "LapTime": "00:02:19.1000000",
  "Sector1": "00:00:28.3520000",
  "Sector2": "00:00:53.6020000",
  "Sector3": "00:00:57"
},
{
  "IsPitLap": false,
  "LapNumber": 195,
  "IsValid": false,
  "LapStartPosition": 26,
  "LapStartPositionClass": 27,
  "LapTime": "00:02:19.2300000",
  "Sector1": "00:00:28.4090000",
  "Sector2": "00:00:53.8000000",
  "Sector3": "00:00:56.8000000"
},
{
  "IsPitLap": false,
  "LapNumber": 196,
  "IsValid": false,
  "LapStartPosition": 26,
  "LapStartPositionClass": 27,
  "LapTime": "00:02:19.7970000",
  "Sector1": "00:00:28.5880000",
  "Sector2": "00:00:55.2030000",
  "Sector3": "00:00:55.8000000"
},
{
  "IsPitLap": false,
  "LapNumber": 197,
  "IsValid": true,
  "LapStartPosition": 26,
  "LapStartPositionClass": 27,
  "LapTime": "00:02:18.2550000",
  "Sector1": "00:00:28.3930000",
  "Sector2": "00:00:53.6000000",
  "Sector3": "00:00:56"
},
{
  "IsPitLap": false,
  "LapNumber": 198,
  "IsValid": true,
  "LapStartPosition": 26,
  "LapStartPositionClass": 27,
  "LapTime": "00:02:18.3550000",
  "Sector1": "00:00:28.5360000",
  "Sector2": "00:00:53.6030000",
  "Sector3": "00:00:56"
},
{
  "IsPitLap": false,
  "LapNumber": 199,
  "IsValid": true,
  "LapStartPosition": 26,
  "LapStartPositionClass": 27,
  "LapTime": "00:02:17.4550000",
  "Sector1": "00:00:28.3950000",
  "Sector2": "00:00:53.6020000",
  "Sector3": "00:00:55.2000000"
},
{
  "IsPitLap": false,
  "LapNumber": 200,
  "IsValid": true,
  "LapStartPosition": 26,
  "LapStartPositionClass": 27,
  "LapTime": "00:02:18.1100000",
  "Sector1": "00:00:28.1820000",
  "Sector2": "00:00:53.8150000",
  "Sector3": "00:00:56.0020000"
},
{
  "IsPitLap": false,
  "LapNumber": 201,
  "IsValid": true,
  "LapStartPosition": 26,
  "LapStartPositionClass": 27,
  "LapTime": "00:02:17.1200000",
  "Sector1": "00:00:28.2620000",
  "Sector2": "00:00:53.4030000",
  "Sector3": "00:00:55.2020000"
},
{
  "IsPitLap": false,
  "LapNumber": 202,
  "IsValid": true,
  "LapStartPosition": 26,
  "LapStartPositionClass": 27,
  "LapTime": "00:02:17.1150000",
  "Sector1": "00:00:27.9530000",
  "Sector2": "00:00:53.4020000",
  "Sector3": "00:00:55.6000000"
},
{
  "IsPitLap": false,
  "LapNumber": 203,
  "IsValid": false,
  "LapStartPosition": 26,
  "LapStartPositionClass": 27,
  "LapTime": "00:02:17.5000000",
  "Sector1": "00:00:28.0390000",
  "Sector2": "00:00:53.2030000",
  "Sector3": "00:00:56.0020000"
},
{
  "IsPitLap": false,
  "LapNumber": 204,
  "IsValid": true,
  "LapStartPosition": 26,
  "LapStartPositionClass": 27,
  "LapTime": "00:02:17.0120000",
  "Sector1": "00:00:28.3460000",
  "Sector2": "00:00:53.2000000",
  "Sector3": "00:00:55.2030000"
},
{
  "IsPitLap": false,
  "LapNumber": 205,
  "IsValid": true,
  "LapStartPosition": 26,
  "LapStartPositionClass": 27,
  "LapTime": "00:02:16.5500000",
  "Sector1": "00:00:27.9560000",
  "Sector2": "00:00:53.6020000",
  "Sector3": "00:00:54.8000000"
},
{
  "IsPitLap": false,
  "LapNumber": 206,
  "IsValid": false,
  "LapStartPosition": 26,
  "LapStartPositionClass": 27,
  "LapTime": "00:02:17.3900000",
  "Sector1": "00:00:28.2040000",
  "Sector2": "00:00:53.0980000",
  "Sector3": "00:00:55.8020000"
},
{
  "IsPitLap": false,
  "LapNumber": 207,
  "IsValid": true,
  "LapStartPosition": 26,
  "LapStartPositionClass": 27,
  "LapTime": "00:02:16.6020000",
  "Sector1": "00:00:28.3130000",
  "Sector2": "00:00:53.6000000",
  "Sector3": "00:00:54.4000000"
},
{
  "IsPitLap": true,
  "LapNumber": 208,
  "IsValid": false,
  "LapStartPosition": 26,
  "LapStartPositionClass": 27,
  "LapTime": "00:02:19.8850000",
  "Sector1": "00:00:27.7190000",
  "Sector2": "00:00:53.2000000",
  "Sector3": "00:00:58.6020000"
},
{
  "IsPitLap": true,
  "LapNumber": 209,
  "IsValid": false,
  "LapStartPosition": 26,
  "LapStartPositionClass": 27,
  "LapTime": "00:03:16.7320000",
  "Sector1": "00:01:29.6490000",
  "Sector2": "00:00:52.8030000",
  "Sector3": "00:00:54.2000000"
},
{
  "IsPitLap": false,
  "LapNumber": 210,
  "IsValid": true,
  "LapStartPosition": 26,
  "LapStartPositionClass": 27,
  "LapTime": "00:02:12.1150000",
  "Sector1": "00:00:27.5080000",
  "Sector2": "00:00:51.4050000",
  "Sector3": "00:00:53.0030000"
},
{
  "IsPitLap": false,
  "LapNumber": 211,
  "IsValid": true,
  "LapStartPosition": 26,
  "LapStartPositionClass": 27,
  "LapTime": "00:02:13.4420000",
  "Sector1": "00:00:27.7890000",
  "Sector2": "00:00:52.8080000",
  "Sector3": "00:00:52.6270000"
},
{
  "IsPitLap": false,
  "LapNumber": 212,
  "IsValid": false,
  "LapStartPosition": 26,
  "LapStartPositionClass": 27,
  "LapTime": "00:02:09.8970000",
  "Sector1": "00:00:27.3900000",
  "Sector2": "00:00:50.8050000",
  "Sector3": "00:00:51.6050000"
},
{
  "IsPitLap": false,
  "LapNumber": 213,
  "IsValid": true,
  "LapStartPosition": 26,
  "LapStartPositionClass": 27,
  "LapTime": "00:02:08.0920000",
  "Sector1": "00:00:26.8960000",
  "Sector2": "00:00:50.0620000",
  "Sector3": "00:00:51.0080000"
},
{
  "IsPitLap": false,
  "LapNumber": 214,
  "IsValid": true,
  "LapStartPosition": 26,
  "LapStartPositionClass": 27,
  "LapTime": "00:02:07.5100000",
  "Sector1": "00:00:26.6860000",
  "Sector2": "00:00:49.6020000",
  "Sector3": "00:00:51.0030000"
},
{
  "IsPitLap": false,
  "LapNumber": 215,
  "IsValid": true,
  "LapStartPosition": 26,
  "LapStartPositionClass": 27,
  "LapTime": "00:02:08.0200000",
  "Sector1": "00:00:27.5840000",
  "Sector2": "00:00:49.6000000",
  "Sector3": "00:00:50.6070000"
},
{
  "IsPitLap": false,
  "LapNumber": 216,
  "IsValid": true,
  "LapStartPosition": 25,
  "LapStartPositionClass": 25,
  "LapTime": "00:02:07.4270000",
  "Sector1": "00:00:26.7760000",
  "Sector2": "00:00:49.4000000",
  "Sector3": "00:00:51.0050000"
},
{
  "IsPitLap": false,
  "LapNumber": 217,
  "IsValid": false,
  "LapStartPosition": 25,
  "LapStartPositionClass": 25,
  "LapTime": "00:02:07.6020000",
  "Sector1": "00:00:26.7480000",
  "Sector2": "00:00:49.8030000",
  "Sector3": "00:00:50.8000000"
},
{
  "IsPitLap": false,
  "LapNumber": 218,
  "IsValid": true,
  "LapStartPosition": 25,
  "LapStartPositionClass": 25,
  "LapTime": "00:02:08.5970000",
  "Sector1": "00:00:26.7610000",
  "Sector2": "00:00:50.2000000",
  "Sector3": "00:00:51.4000000"
},
{
  "IsPitLap": false,
  "LapNumber": 219,
  "IsValid": true,
  "LapStartPosition": 25,
  "LapStartPositionClass": 25,
  "LapTime": "00:02:08.3950000",
  "Sector1": "00:00:26.7450000",
  "Sector2": "00:00:49.8000000",
  "Sector3": "00:00:51.6000000"
},
{
  "IsPitLap": false,
  "LapNumber": 220,
  "IsValid": false,
  "LapStartPosition": 25,
  "LapStartPositionClass": 25,
  "LapTime": "00:02:10.6800000",
  "Sector1": "00:00:26.9500000",
  "Sector2": "00:00:50.4000000",
  "Sector3": "00:00:53.2080000"
},
{
  "IsPitLap": false,
  "LapNumber": 221,
  "IsValid": false,
  "LapStartPosition": 26,
  "LapStartPositionClass": 27,
  "LapTime": "00:02:08.3020000",
  "Sector1": "00:00:26.8730000",
  "Sector2": "00:00:49.8020000",
  "Sector3": "00:00:51.4080000"
},
{
  "IsPitLap": false,
  "LapNumber": 222,
  "IsValid": false,
  "LapStartPosition": 26,
  "LapStartPositionClass": 27,
  "LapTime": "00:02:08.6000000",
  "Sector1": "00:00:26.7850000",
  "Sector2": "00:00:50.4020000",
  "Sector3": "00:00:51.2030000"
},
{
  "IsPitLap": false,
  "LapNumber": 223,
  "IsValid": false,
  "LapStartPosition": 26,
  "LapStartPositionClass": 27,
  "LapTime": "00:02:07.8950000",
  "Sector1": "00:00:26.7840000",
  "Sector2": "00:00:49.6020000",
  "Sector3": "00:00:51.4000000"
},
{
  "IsPitLap": false,
  "LapNumber": 224,
  "IsValid": true,
  "LapStartPosition": 26,
  "LapStartPositionClass": 27,
  "LapTime": "00:02:08.9870000",
  "Sector1": "00:00:26.8930000",
  "Sector2": "00:00:50.2030000",
  "Sector3": "00:00:51.8020000"
},
{
  "IsPitLap": false,
  "LapNumber": 225,
  "IsValid": false,
  "LapStartPosition": 26,
  "LapStartPositionClass": 27,
  "LapTime": "00:02:09.1300000",
  "Sector1": "00:00:26.9180000",
  "Sector2": "00:00:51",
  "Sector3": "00:00:51.0050000"
},
{
  "IsPitLap": false,
  "LapNumber": 226,
  "IsValid": false,
  "LapStartPosition": 26,
  "LapStartPositionClass": 27,
  "LapTime": "00:02:07.6650000",
  "Sector1": "00:00:26.5930000",
  "Sector2": "00:00:49.8030000",
  "Sector3": "00:00:51.2000000"
},
{
  "IsPitLap": false,
  "LapNumber": 227,
  "IsValid": false,
  "LapStartPosition": 26,
  "LapStartPositionClass": 27,
  "LapTime": "00:02:07.9620000",
  "Sector1": "00:00:26.7270000",
  "Sector2": "00:00:50",
  "Sector3": "00:00:51.0030000"
},
{
  "IsPitLap": false,
  "LapNumber": 228,
  "IsValid": false,
  "LapStartPosition": 26,
  "LapStartPositionClass": 27,
  "LapTime": "00:02:08.0720000",
  "Sector1": "00:00:26.7730000",
  "Sector2": "00:00:49.6000000",
  "Sector3": "00:00:51.6000000"
},
{
  "IsPitLap": false,
  "LapNumber": 229,
  "IsValid": false,
  "LapStartPosition": 26,
  "LapStartPositionClass": 27,
  "LapTime": "00:02:08.4720000",
  "Sector1": "00:00:26.6880000",
  "Sector2": "00:00:50.2100000",
  "Sector3": "00:00:51.4000000"
},
{
  "IsPitLap": false,
  "LapNumber": 230,
  "IsValid": true,
  "LapStartPosition": 26,
  "LapStartPositionClass": 27,
  "LapTime": "00:02:08.7150000",
  "Sector1": "00:00:27.0280000",
  "Sector2": "00:00:49.8000000",
  "Sector3": "00:00:51.8020000"
},
{
  "IsPitLap": false,
  "LapNumber": 231,
  "IsValid": false,
  "LapStartPosition": 26,
  "LapStartPositionClass": 27,
  "LapTime": "00:02:09.2170000",
  "Sector1": "00:00:26.9160000",
  "Sector2": "00:00:50.8000000",
  "Sector3": "00:00:51.4030000"
},
{
  "IsPitLap": false,
  "LapNumber": 232,
  "IsValid": false,
  "LapStartPosition": 26,
  "LapStartPositionClass": 27,
  "LapTime": "00:02:08.7620000",
  "Sector1": "00:00:26.8960000",
  "Sector2": "00:00:50",
  "Sector3": "00:00:51.6070000"
},
{
  "IsPitLap": false,
  "LapNumber": 233,
  "IsValid": false,
  "LapStartPosition": 26,
  "LapStartPositionClass": 27,
  "LapTime": "00:02:08.2320000",
  "Sector1": "00:00:26.7470000",
  "Sector2": "00:00:50.2030000",
  "Sector3": "00:00:51.2020000"
},
{
  "IsPitLap": false,
  "LapNumber": 234,
  "IsValid": true,
  "LapStartPosition": 25,
  "LapStartPositionClass": 25,
  "LapTime": "00:02:08.8320000",
  "Sector1": "00:00:26.9100000",
  "Sector2": "00:00:50.2000000",
  "Sector3": "00:00:51.6000000"
},
{
  "IsPitLap": false,
  "LapNumber": 235,
  "IsValid": false,
  "LapStartPosition": 25,
  "LapStartPositionClass": 25,
  "LapTime": "00:02:08.7600000",
  "Sector1": "00:00:26.8780000",
  "Sector2": "00:00:50.6030000",
  "Sector3": "00:00:51.2050000"
},
{
  "IsPitLap": false,
  "LapNumber": 236,
  "IsValid": false,
  "LapStartPosition": 25,
  "LapStartPositionClass": 25,
  "LapTime": "00:02:09.1270000",
  "Sector1": "00:00:26.9290000",
  "Sector2": "00:00:50",
  "Sector3": "00:00:52"
},
{
  "IsPitLap": true,
  "LapNumber": 237,
  "IsValid": false,
  "LapStartPosition": 25,
  "LapStartPositionClass": 25,
  "LapTime": "00:02:14.4520000",
  "Sector1": "00:00:27.4260000",
  "Sector2": "00:00:51.0020000",
  "Sector3": "00:00:55.8030000"
},
{
  "IsPitLap": true,
  "LapNumber": 238,
  "IsValid": false,
  "LapStartPosition": 25,
  "LapStartPositionClass": 25,
  "LapTime": "00:03:18.5370000",
  "Sector1": "00:01:36.1910000",
  "Sector2": "00:00:50.2000000",
  "Sector3": "00:00:52"
},
{
  "IsPitLap": false,
  "LapNumber": 239,
  "IsValid": true,
  "LapStartPosition": 26,
  "LapStartPositionClass": 27,
  "LapTime": "00:02:08.6420000",
  "Sector1": "00:00:26.9830000",
  "Sector2": "00:00:50",
  "Sector3": "00:00:51.4150000"
},
{
  "IsPitLap": false,
  "LapNumber": 240,
  "IsValid": true,
  "LapStartPosition": 26,
  "LapStartPositionClass": 27,
  "LapTime": "00:02:07.6800000",
  "Sector1": "00:00:26.9590000",
  "Sector2": "00:00:49.6050000",
  "Sector3": "00:00:51.0020000"
},
{
  "IsPitLap": false,
  "LapNumber": 241,
  "IsValid": true,
  "LapStartPosition": 26,
  "LapStartPositionClass": 27,
  "LapTime": "00:02:07.8570000",
  "Sector1": "00:00:27.0850000",
  "Sector2": "00:00:49.6030000",
  "Sector3": "00:00:51.0100000"
},
{
  "IsPitLap": false,
  "LapNumber": 242,
  "IsValid": true,
  "LapStartPosition": 25,
  "LapStartPositionClass": 25,
  "LapTime": "00:02:08.3450000",
  "Sector1": "00:00:26.8460000",
  "Sector2": "00:00:50.0120000",
  "Sector3": "00:00:51.4080000"
},
{
  "IsPitLap": false,
  "LapNumber": 243,
  "IsValid": true,
  "LapStartPosition": 25,
  "LapStartPositionClass": 25,
  "LapTime": "00:02:08.5300000",
  "Sector1": "00:00:27.1390000",
  "Sector2": "00:00:49.8050000",
  "Sector3": "00:00:51.4000000"
},
{
  "IsPitLap": false,
  "LapNumber": 244,
  "IsValid": true,
  "LapStartPosition": 25,
  "LapStartPositionClass": 25,
  "LapTime": "00:02:07.3800000",
  "Sector1": "00:00:27.0140000",
  "Sector2": "00:00:49.4050000",
  "Sector3": "00:00:50.8020000"
},
{
  "IsPitLap": false,
  "LapNumber": 245,
  "IsValid": true,
  "LapStartPosition": 25,
  "LapStartPositionClass": 25,
  "LapTime": "00:02:07.4750000",
  "Sector1": "00:00:27.0500000",
  "Sector2": "00:00:49.4000000",
  "Sector3": "00:00:50.8020000"
},
{
  "IsPitLap": false,
  "LapNumber": 246,
  "IsValid": true,
  "LapStartPosition": 25,
  "LapStartPositionClass": 25,
  "LapTime": "00:02:08.9900000",
  "Sector1": "00:00:26.9580000",
  "Sector2": "00:00:50.8030000",
  "Sector3": "00:00:51"
},
{
  "IsPitLap": false,
  "LapNumber": 247,
  "IsValid": true,
  "LapStartPosition": 25,
  "LapStartPositionClass": 25,
  "LapTime": "00:02:07.8520000",
  "Sector1": "00:00:26.9910000",
  "Sector2": "00:00:49.6020000",
  "Sector3": "00:00:51.2030000"
},
{
  "IsPitLap": false,
  "LapNumber": 248,
  "IsValid": true,
  "LapStartPosition": 25,
  "LapStartPositionClass": 25,
  "LapTime": "00:02:07.4700000",
  "Sector1": "00:00:26.9490000",
  "Sector2": "00:00:49.4070000",
  "Sector3": "00:00:51.0030000"
},
{
  "IsPitLap": false,
  "LapNumber": 249,
  "IsValid": false,
  "LapStartPosition": 25,
  "LapStartPositionClass": 25,
  "LapTime": "00:02:11.2020000",
  "Sector1": "00:00:26.8800000",
  "Sector2": "00:00:49.4030000",
  "Sector3": "00:00:54.8070000"
},
{
  "IsPitLap": false,
  "LapNumber": 250,
  "IsValid": true,
  "LapStartPosition": 25,
  "LapStartPositionClass": 25,
  "LapTime": "00:02:07.8000000",
  "Sector1": "00:00:27.1250000",
  "Sector2": "00:00:49.4000000",
  "Sector3": "00:00:51.2020000"
},
{
  "IsPitLap": false,
  "LapNumber": 251,
  "IsValid": true,
  "LapStartPosition": 25,
  "LapStartPositionClass": 25,
  "LapTime": "00:02:08.3170000",
  "Sector1": "00:00:26.9190000",
  "Sector2": "00:00:50.0050000",
  "Sector3": "00:00:51.1980000"
},
{
  "IsPitLap": false,
  "LapNumber": 252,
  "IsValid": true,
  "LapStartPosition": 25,
  "LapStartPositionClass": 25,
  "LapTime": "00:02:08.5970000",
  "Sector1": "00:00:27.0120000",
  "Sector2": "00:00:50",
  "Sector3": "00:00:51.4020000"
},
{
  "IsPitLap": false,
  "LapNumber": 253,
  "IsValid": true,
  "LapStartPosition": 25,
  "LapStartPositionClass": 25,
  "LapTime": "00:02:09.9020000",
  "Sector1": "00:00:27.2170000",
  "Sector2": "00:00:50.8030000",
  "Sector3": "00:00:51.8020000"
},
{
  "IsPitLap": false,
  "LapNumber": 254,
  "IsValid": true,
  "LapStartPosition": 25,
  "LapStartPositionClass": 25,
  "LapTime": "00:02:08.2670000",
  "Sector1": "00:00:27.1090000",
  "Sector2": "00:00:49.6000000",
  "Sector3": "00:00:51.4000000"
},
{
  "IsPitLap": false,
  "LapNumber": 255,
  "IsValid": true,
  "LapStartPosition": 25,
  "LapStartPositionClass": 25,
  "LapTime": "00:02:10.2570000",
  "Sector1": "00:00:26.9010000",
  "Sector2": "00:00:50.8000000",
  "Sector3": "00:00:52.4030000"
},
{
  "IsPitLap": false,
  "LapNumber": 256,
  "IsValid": true,
  "LapStartPosition": 25,
  "LapStartPositionClass": 25,
  "LapTime": "00:02:08.9400000",
  "Sector1": "00:00:27.0470000",
  "Sector2": "00:00:50.0070000",
  "Sector3": "00:00:51.8080000"
},
{
  "IsPitLap": false,
  "LapNumber": 257,
  "IsValid": true,
  "LapStartPosition": 25,
  "LapStartPositionClass": 25,
  "LapTime": "00:02:08.2200000",
  "Sector1": "00:00:26.9150000",
  "Sector2": "00:00:49.8100000",
  "Sector3": "00:00:51.4020000"
},
{
  "IsPitLap": false,
  "LapNumber": 258,
  "IsValid": true,
  "LapStartPosition": 25,
  "LapStartPositionClass": 25,
  "LapTime": "00:02:08.2670000",
  "Sector1": "00:00:26.7260000",
  "Sector2": "00:00:50.0070000",
  "Sector3": "00:00:51.4130000"
},
{
  "IsPitLap": false,
  "LapNumber": 259,
  "IsValid": true,
  "LapStartPosition": 25,
  "LapStartPositionClass": 25,
  "LapTime": "00:02:09.0170000",
  "Sector1": "00:00:27.0720000",
  "Sector2": "00:00:50.0020000",
  "Sector3": "00:00:51.8000000"
},
{
  "IsPitLap": false,
  "LapNumber": 260,
  "IsValid": true,
  "LapStartPosition": 25,
  "LapStartPositionClass": 25,
  "LapTime": "00:02:08.5500000",
  "Sector1": "00:00:26.8600000",
  "Sector2": "00:00:49.8000000",
  "Sector3": "00:00:51.8130000"
},
{
  "IsPitLap": false,
  "LapNumber": 261,
  "IsValid": true,
  "LapStartPosition": 25,
  "LapStartPositionClass": 25,
  "LapTime": "00:02:09.5050000",
  "Sector1": "00:00:27.7250000",
  "Sector2": "00:00:50.2020000",
  "Sector3": "00:00:51.4000000"
},
{
  "IsPitLap": false,
  "LapNumber": 262,
  "IsValid": true,
  "LapStartPosition": 25,
  "LapStartPositionClass": 25,
  "LapTime": "00:02:08.2550000",
  "Sector1": "00:00:27.0250000",
  "Sector2": "00:00:49.6030000",
  "Sector3": "00:00:51.4000000"
},
{
  "IsPitLap": false,
  "LapNumber": 263,
  "IsValid": true,
  "LapStartPosition": 25,
  "LapStartPositionClass": 25,
  "LapTime": "00:02:08.4450000",
  "Sector1": "00:00:26.9730000",
  "Sector2": "00:00:49.8020000",
  "Sector3": "00:00:51.6030000"
},
{
  "IsPitLap": false,
  "LapNumber": 264,
  "IsValid": true,
  "LapStartPosition": 25,
  "LapStartPositionClass": 25,
  "LapTime": "00:02:08.1870000",
  "Sector1": "00:00:26.9400000",
  "Sector2": "00:00:49.6030000",
  "Sector3": "00:00:51.5300000"
},
{
  "IsPitLap": false,
  "LapNumber": 265,
  "IsValid": true,
  "LapStartPosition": 25,
  "LapStartPositionClass": 25,
  "LapTime": "00:02:09.5570000",
  "Sector1": "00:00:28.1240000",
  "Sector2": "00:00:49.8000000",
  "Sector3": "00:00:51.4020000"
},
{
  "IsPitLap": false,
  "LapNumber": 266,
  "IsValid": true,
  "LapStartPosition": 25,
  "LapStartPositionClass": 25,
  "LapTime": "00:02:08.9320000",
  "Sector1": "00:00:26.9530000",
  "Sector2": "00:00:49.8000000",
  "Sector3": "00:00:52.0030000"
},
{
  "IsPitLap": true,
  "LapNumber": 267,
  "IsValid": false,
  "LapStartPosition": 25,
  "LapStartPositionClass": 25,
  "LapTime": "00:02:13.8670000",
  "Sector1": "00:00:27.2340000",
  "Sector2": "00:00:50.2020000",
  "Sector3": "00:00:56.2030000"
},
{
  "IsPitLap": true,
  "LapNumber": 268,
  "IsValid": false,
  "LapStartPosition": 25,
  "LapStartPositionClass": 25,
  "LapTime": "00:03:28.7890000",
  "Sector1": "00:01:43.3700000",
  "Sector2": "00:00:49.6080000",
  "Sector3": "00:00:55.6220000"
},
{
  "IsPitLap": true,
  "LapNumber": 269,
  "IsValid": true,
  "LapStartPosition": 27,
  "LapStartPositionClass": 28,
  "LapTime": "00:02:31.5650000",
  "Sector1": "00:00:51.2760000",
  "Sector2": "00:00:49.4000000",
  "Sector3": "00:00:50.6000000"
},
{
  "IsPitLap": false,
  "LapNumber": 270,
  "IsValid": true,
  "LapStartPosition": 27,
  "LapStartPositionClass": 28,
  "LapTime": "00:02:07.0100000",
  "Sector1": "00:00:26.7160000",
  "Sector2": "00:00:49.4100000",
  "Sector3": "00:00:50.6000000"
},
{
  "IsPitLap": false,
  "LapNumber": 271,
  "IsValid": true,
  "LapStartPosition": 26,
  "LapStartPositionClass": 27,
  "LapTime": "00:02:06.5950000",
  "Sector1": "00:00:26.7620000",
  "Sector2": "00:00:49.2020000",
  "Sector3": "00:00:50.4230000"
},
{
  "IsPitLap": false,
  "LapNumber": 272,
  "IsValid": true,
  "LapStartPosition": 25,
  "LapStartPositionClass": 25,
  "LapTime": "00:02:07.0300000",
  "Sector1": "00:00:26.5510000",
  "Sector2": "00:00:49.4020000",
  "Sector3": "00:00:50.8330000"
},
{
  "IsPitLap": false,
  "LapNumber": 273,
  "IsValid": true,
  "LapStartPosition": 25,
  "LapStartPositionClass": 25,
  "LapTime": "00:02:06.9520000",
  "Sector1": "00:00:26.7600000",
  "Sector2": "00:00:49.0070000",
  "Sector3": "00:00:51"
},
{
  "IsPitLap": false,
  "LapNumber": 274,
  "IsValid": true,
  "LapStartPosition": 25,
  "LapStartPositionClass": 25,
  "LapTime": "00:02:06.7200000",
  "Sector1": "00:00:26.6170000",
  "Sector2": "00:00:49.2500000",
  "Sector3": "00:00:50.6000000"
},
{
  "IsPitLap": false,
  "LapNumber": 275,
  "IsValid": true,
  "LapStartPosition": 25,
  "LapStartPositionClass": 25,
  "LapTime": "00:02:06.9470000",
  "Sector1": "00:00:26.5560000",
  "Sector2": "00:00:49.4000000",
  "Sector3": "00:00:50.8050000"
},
{
  "IsPitLap": false,
  "LapNumber": 276,
  "IsValid": false,
  "LapStartPosition": 25,
  "LapStartPositionClass": 25,
  "LapTime": "00:02:07.0270000",
  "Sector1": "00:00:26.6150000",
  "Sector2": "00:00:49.2570000",
  "Sector3": "00:00:51.0030000"
},
{
  "IsPitLap": false,
  "LapNumber": 277,
  "IsValid": true,
  "LapStartPosition": 25,
  "LapStartPositionClass": 25,
  "LapTime": "00:02:07.3770000",
  "Sector1": "00:00:26.6770000",
  "Sector2": "00:00:49.6180000",
  "Sector3": "00:00:50.8620000"
},
{
  "IsPitLap": false,
  "LapNumber": 278,
  "IsValid": true,
  "LapStartPosition": 25,
  "LapStartPositionClass": 25,
  "LapTime": "00:02:07.2900000",
  "Sector1": "00:00:26.7750000",
  "Sector2": "00:00:49.4150000",
  "Sector3": "00:00:50.8000000"
},
{
  "IsPitLap": false,
  "LapNumber": 279,
  "IsValid": true,
  "LapStartPosition": 25,
  "LapStartPositionClass": 25,
  "LapTime": "00:02:07.4220000",
  "Sector1": "00:00:26.7110000",
  "Sector2": "00:00:49.6000000",
  "Sector3": "00:00:50.8000000"
},
{
  "IsPitLap": false,
  "LapNumber": 280,
  "IsValid": true,
  "LapStartPosition": 25,
  "LapStartPositionClass": 25,
  "LapTime": "00:02:07.7100000",
  "Sector1": "00:00:26.6910000",
  "Sector2": "00:00:49.6020000",
  "Sector3": "00:00:51.2080000"
},
{
  "IsPitLap": false,
  "LapNumber": 281,
  "IsValid": true,
  "LapStartPosition": 25,
  "LapStartPositionClass": 25,
  "LapTime": "00:02:07.9270000",
  "Sector1": "00:00:26.7870000",
  "Sector2": "00:00:49.4020000",
  "Sector3": "00:00:51.6000000"
},
{
  "IsPitLap": false,
  "LapNumber": 282,
  "IsValid": true,
  "LapStartPosition": 25,
  "LapStartPositionClass": 25,
  "LapTime": "00:02:07.6970000",
  "Sector1": "00:00:26.6700000",
  "Sector2": "00:00:49.8030000",
  "Sector3": "00:00:51"
},
{
  "IsPitLap": false,
  "LapNumber": 283,
  "IsValid": false,
  "LapStartPosition": 25,
  "LapStartPositionClass": 25,
  "LapTime": "00:02:08.9550000",
  "Sector1": "00:00:26.7750000",
  "Sector2": "00:00:49.6000000",
  "Sector3": "00:00:52.4020000"
},
{
  "IsPitLap": false,
  "LapNumber": 284,
  "IsValid": true,
  "LapStartPosition": 25,
  "LapStartPositionClass": 25,
  "LapTime": "00:02:07.8950000",
  "Sector1": "00:00:26.8370000",
  "Sector2": "00:00:49.6230000",
  "Sector3": "00:00:51.2100000"
},
{
  "IsPitLap": false,
  "LapNumber": 285,
  "IsValid": true,
  "LapStartPosition": 25,
  "LapStartPositionClass": 25,
  "LapTime": "00:02:07.6950000",
  "Sector1": "00:00:26.7780000",
  "Sector2": "00:00:49.6070000",
  "Sector3": "00:00:51"
},
{
  "IsPitLap": false,
  "LapNumber": 286,
  "IsValid": true,
  "LapStartPosition": 25,
  "LapStartPositionClass": 25,
  "LapTime": "00:02:08.4050000",
  "Sector1": "00:00:26.8870000",
  "Sector2": "00:00:50.2000000",
  "Sector3": "00:00:51"
},
{
  "IsPitLap": false,
  "LapNumber": 287,
  "IsValid": true,
  "LapStartPosition": 25,
  "LapStartPositionClass": 25,
  "LapTime": "00:02:07.6370000",
  "Sector1": "00:00:26.6860000",
  "Sector2": "00:00:49.4050000",
  "Sector3": "00:00:51.4000000"
},
{
  "IsPitLap": false,
  "LapNumber": 288,
  "IsValid": true,
  "LapStartPosition": 25,
  "LapStartPositionClass": 25,
  "LapTime": "00:02:07.3850000",
  "Sector1": "00:00:26.8640000",
  "Sector2": "00:00:49.2020000",
  "Sector3": "00:00:51"
},
{
  "IsPitLap": false,
  "LapNumber": 289,
  "IsValid": true,
  "LapStartPosition": 25,
  "LapStartPositionClass": 25,
  "LapTime": "00:02:07.9170000",
  "Sector1": "00:00:26.6740000",
  "Sector2": "00:00:49.4030000",
  "Sector3": "00:00:51.6000000"
},
{
  "IsPitLap": false,
  "LapNumber": 290,
  "IsValid": false,
  "LapStartPosition": 25,
  "LapStartPositionClass": 25,
  "LapTime": "00:02:10.2350000",
  "Sector1": "00:00:27.5890000",
  "Sector2": "00:00:50.8030000",
  "Sector3": "00:00:51.6000000"
},
{
  "IsPitLap": false,
  "LapNumber": 291,
  "IsValid": true,
  "LapStartPosition": 26,
  "LapStartPositionClass": 27,
  "LapTime": "00:02:08.4670000",
  "Sector1": "00:00:26.9400000",
  "Sector2": "00:00:49.6020000",
  "Sector3": "00:00:51.6000000"
},
{
  "IsPitLap": false,
  "LapNumber": 292,
  "IsValid": true,
  "LapStartPosition": 26,
  "LapStartPositionClass": 27,
  "LapTime": "00:02:07.6850000",
  "Sector1": "00:00:26.6880000",
  "Sector2": "00:00:49.6000000",
  "Sector3": "00:00:51.2030000"
},
{
  "IsPitLap": false,
  "LapNumber": 293,
  "IsValid": true,
  "LapStartPosition": 26,
  "LapStartPositionClass": 27,
  "LapTime": "00:02:07.9000000",
  "Sector1": "00:00:26.7990000",
  "Sector2": "00:00:49.6000000",
  "Sector3": "00:00:51.2000000"
},
{
  "IsPitLap": false,
  "LapNumber": 294,
  "IsValid": false,
  "LapStartPosition": 26,
  "LapStartPositionClass": 27,
  "LapTime": "00:02:07.7000000",
  "Sector1": "00:00:26.7120000",
  "Sector2": "00:00:49.6200000",
  "Sector3": "00:00:51.2030000"
},
{
  "IsPitLap": false,
  "LapNumber": 295,
  "IsValid": true,
  "LapStartPosition": 26,
  "LapStartPositionClass": 27,
  "LapTime": "00:02:07.5470000",
  "Sector1": "00:00:26.6300000",
  "Sector2": "00:00:49.4000000",
  "Sector3": "00:00:51.2000000"
},
{
  "IsPitLap": false,
  "LapNumber": 296,
  "IsValid": true,
  "LapStartPosition": 26,
  "LapStartPositionClass": 27,
  "LapTime": "00:02:08.0050000",
  "Sector1": "00:00:26.6850000",
  "Sector2": "00:00:49.8020000",
  "Sector3": "00:00:51.2000000"
},
{
  "IsPitLap": true,
  "LapNumber": 297,
  "IsValid": false,
  "LapStartPosition": 26,
  "LapStartPositionClass": 27,
  "LapTime": "00:02:12.7450000",
  "Sector1": "00:00:26.8920000",
  "Sector2": "00:00:49.2030000",
  "Sector3": "00:00:56.4020000"
},
{
  "IsPitLap": true,
  "LapNumber": 298,
  "IsValid": false,
  "LapStartPosition": 26,
  "LapStartPositionClass": 27,
  "LapTime": "00:03:11.0370000",
  "Sector1": "00:01:29.3780000",
  "Sector2": "00:00:50.0100000",
  "Sector3": "00:00:51.4000000"
},
{
  "IsPitLap": false,
  "LapNumber": 299,
  "IsValid": true,
  "LapStartPosition": 26,
  "LapStartPositionClass": 27,
  "LapTime": "00:02:07.9070000",
  "Sector1": "00:00:26.9790000",
  "Sector2": "00:00:49.6020000",
  "Sector3": "00:00:51.2300000"
},
{
  "IsPitLap": false,
  "LapNumber": 300,
  "IsValid": true,
  "LapStartPosition": 26,
  "LapStartPositionClass": 27,
  "LapTime": "00:02:07.3950000",
  "Sector1": "00:00:26.6980000",
  "Sector2": "00:00:49.4120000",
  "Sector3": "00:00:51.2030000"
},
{
  "IsPitLap": false,
  "LapNumber": 301,
  "IsValid": true,
  "LapStartPosition": 26,
  "LapStartPositionClass": 27,
  "LapTime": "00:02:06.9100000",
  "Sector1": "00:00:26.7310000",
  "Sector2": "00:00:49.3980000",
  "Sector3": "00:00:50.6020000"
},
{
  "IsPitLap": false,
  "LapNumber": 302,
  "IsValid": true,
  "LapStartPosition": 26,
  "LapStartPositionClass": 27,
  "LapTime": "00:02:06.9570000",
  "Sector1": "00:00:26.6150000",
  "Sector2": "00:00:49.4000000",
  "Sector3": "00:00:50.8030000"
},
{
  "IsPitLap": false,
  "LapNumber": 303,
  "IsValid": true,
  "LapStartPosition": 26,
  "LapStartPositionClass": 27,
  "LapTime": "00:02:07.7720000",
  "Sector1": "00:00:26.8740000",
  "Sector2": "00:00:49.8000000",
  "Sector3": "00:00:51"
},
{
  "IsPitLap": false,
  "LapNumber": 304,
  "IsValid": true,
  "LapStartPosition": 26,
  "LapStartPositionClass": 27,
  "LapTime": "00:02:06.7770000",
  "Sector1": "00:00:26.7080000",
  "Sector2": "00:00:49.2000000",
  "Sector3": "00:00:50.8000000"
},
{
  "IsPitLap": false,
  "LapNumber": 305,
  "IsValid": true,
  "LapStartPosition": 26,
  "LapStartPositionClass": 27,
  "LapTime": "00:02:07.5520000",
  "Sector1": "00:00:26.7300000",
  "Sector2": "00:00:49.4030000",
  "Sector3": "00:00:51.2000000"
},
{
  "IsPitLap": false,
  "LapNumber": 306,
  "IsValid": false,
  "LapStartPosition": 26,
  "LapStartPositionClass": 27,
  "LapTime": "00:02:07.5400000",
  "Sector1": "00:00:26.7770000",
  "Sector2": "00:00:49.6020000",
  "Sector3": "00:00:51"
},
{
  "IsPitLap": false,
  "LapNumber": 307,
  "IsValid": true,
  "LapStartPosition": 26,
  "LapStartPositionClass": 27,
  "LapTime": "00:02:07.2100000",
  "Sector1": "00:00:26.8390000",
  "Sector2": "00:00:49.4000000",
  "Sector3": "00:00:50.8030000"
},
{
  "IsPitLap": false,
  "LapNumber": 308,
  "IsValid": false,
  "LapStartPosition": 26,
  "LapStartPositionClass": 27,
  "LapTime": "00:02:07.4120000",
  "Sector1": "00:00:26.8280000",
  "Sector2": "00:00:49.4000000",
  "Sector3": "00:00:51.0020000"
},
{
  "IsPitLap": false,
  "LapNumber": 309,
  "IsValid": true,
  "LapStartPosition": 26,
  "LapStartPositionClass": 27,
  "LapTime": "00:02:07.6250000",
  "Sector1": "00:00:26.6170000",
  "Sector2": "00:00:49.6000000",
  "Sector3": "00:00:51.2280000"
},
{
  "IsPitLap": false,
  "LapNumber": 310,
  "IsValid": true,
  "LapStartPosition": 26,
  "LapStartPositionClass": 27,
  "LapTime": "00:02:08.2850000",
  "Sector1": "00:00:27.8330000",
  "Sector2": "00:00:49.4000000",
  "Sector3": "00:00:51"
},
{
  "IsPitLap": false,
  "LapNumber": 311,
  "IsValid": false,
  "LapStartPosition": 26,
  "LapStartPositionClass": 27,
  "LapTime": "00:02:08.3020000",
  "Sector1": "00:00:26.7630000",
  "Sector2": "00:00:50.2020000",
  "Sector3": "00:00:51.2000000"
},
{
  "IsPitLap": false,
  "LapNumber": 312,
  "IsValid": true,
  "LapStartPosition": 26,
  "LapStartPositionClass": 27,
  "LapTime": "00:02:07.4970000",
  "Sector1": "00:00:26.6620000",
  "Sector2": "00:00:49.8030000",
  "Sector3": "00:00:50.8000000"
},
{
  "IsPitLap": false,
  "LapNumber": 313,
  "IsValid": false,
  "LapStartPosition": 26,
  "LapStartPositionClass": 27,
  "LapTime": "00:02:07.2770000",
  "Sector1": "00:00:26.7610000",
  "Sector2": "00:00:49.2000000",
  "Sector3": "00:00:51.2020000"
},
{
  "IsPitLap": false,
  "LapNumber": 314,
  "IsValid": true,
  "LapStartPosition": 26,
  "LapStartPositionClass": 27,
  "LapTime": "00:02:07.3820000",
  "Sector1": "00:00:26.7140000",
  "Sector2": "00:00:49.6000000",
  "Sector3": "00:00:51"
},
{
  "IsPitLap": false,
  "LapNumber": 315,
  "IsValid": true,
  "LapStartPosition": 26,
  "LapStartPositionClass": 27,
  "LapTime": "00:02:07.3470000",
  "Sector1": "00:00:26.7370000",
  "Sector2": "00:00:49.4170000",
  "Sector3": "00:00:51"
},
{
  "IsPitLap": false,
  "LapNumber": 316,
  "IsValid": true,
  "LapStartPosition": 26,
  "LapStartPositionClass": 27,
  "LapTime": "00:02:08.1900000",
  "Sector1": "00:00:26.8160000",
  "Sector2": "00:00:49.2000000",
  "Sector3": "00:00:52"
},
{
  "IsPitLap": false,
  "LapNumber": 317,
  "IsValid": true,
  "LapStartPosition": 26,
  "LapStartPositionClass": 27,
  "LapTime": "00:02:08.3170000",
  "Sector1": "00:00:27.0280000",
  "Sector2": "00:00:50",
  "Sector3": "00:00:51.2000000"
},
{
  "IsPitLap": false,
  "LapNumber": 318,
  "IsValid": true,
  "LapStartPosition": 26,
  "LapStartPositionClass": 27,
  "LapTime": "00:02:07.3020000",
  "Sector1": "00:00:26.7110000",
  "Sector2": "00:00:49.6030000",
  "Sector3": "00:00:50.8000000"
},
{
  "IsPitLap": false,
  "LapNumber": 319,
  "IsValid": true,
  "LapStartPosition": 26,
  "LapStartPositionClass": 27,
  "LapTime": "00:02:07.7050000",
  "Sector1": "00:00:26.8140000",
  "Sector2": "00:00:49.4000000",
  "Sector3": "00:00:51.4020000"
},
{
  "IsPitLap": false,
  "LapNumber": 320,
  "IsValid": true,
  "LapStartPosition": 26,
  "LapStartPositionClass": 27,
  "LapTime": "00:02:07.8670000",
  "Sector1": "00:00:26.6980000",
  "Sector2": "00:00:49.6000000",
  "Sector3": "00:00:51.4030000"
},
{
  "IsPitLap": false,
  "LapNumber": 321,
  "IsValid": true,
  "LapStartPosition": 26,
  "LapStartPositionClass": 27,
  "LapTime": "00:02:12.0200000",
  "Sector1": "00:00:26.6530000",
  "Sector2": "00:00:51.6020000",
  "Sector3": "00:00:53.6000000"
},
{
  "IsPitLap": false,
  "LapNumber": 322,
  "IsValid": true,
  "LapStartPosition": 26,
  "LapStartPositionClass": 27,
  "LapTime": "00:02:08.7470000",
  "Sector1": "00:00:26.6520000",
  "Sector2": "00:00:49.6030000",
  "Sector3": "00:00:52.4270000"
},
{
  "IsPitLap": true,
  "LapNumber": 323,
  "IsValid": false,
  "LapStartPosition": 26,
  "LapStartPositionClass": 27,
  "LapTime": "00:02:13.1150000",
  "Sector1": "00:00:27.1630000",
  "Sector2": "00:00:49.6020000",
  "Sector3": "00:00:56.2000000"
},
{
  "IsPitLap": true,
  "LapNumber": 324,
  "IsValid": false,
  "LapStartPosition": 26,
  "LapStartPositionClass": 27,
  "LapTime": "00:03:06.6100000",
  "Sector1": "00:01:27.0800000",
  "Sector2": "00:00:49",
  "Sector3": "00:00:50.4050000"
},
{
  "IsPitLap": false,
  "LapNumber": 325,
  "IsValid": true,
  "LapStartPosition": 26,
  "LapStartPositionClass": 27,
  "LapTime": "00:02:06.1200000",
  "Sector1": "00:00:26.5780000",
  "Sector2": "00:00:49.0580000",
  "Sector3": "00:00:50.2120000"
},
{
  "IsPitLap": false,
  "LapNumber": 326,
  "IsValid": true,
  "LapStartPosition": 26,
  "LapStartPositionClass": 27,
  "LapTime": "00:02:05.7750000",
  "Sector1": "00:00:26.5320000",
  "Sector2": "00:00:48.8020000",
  "Sector3": "00:00:50.2030000"
} ]