"Lap", "laptime", "driver"
"2 ", "01:47.8850", "1 ", Lamborghini Huracan Evo2 (GT3), no,"0", "01:56.9013", "42.3163", "38.8250", "35.7600",     "0 ",
"3 ", "01:48.3670", "1 ", Lamborghini Huracan Evo2 (GT3), no,"0", "01:56.9013", "42.3163", "38.8250", "35.7600",     "0 ",
"4 ", "01:48.4320", "1 ", Lamborghini Huracan Evo2 (GT3), no,"0", "01:56.9013", "42.3163", "38.8250", "35.7600",     "0 ",
"5 ", "01:48.4570", "1 ", Lamborghini Huracan Evo2 (GT3), no,"0", "01:56.9013", "42.3163", "38.8250", "35.7600",     "0 ",
"6 ", "01:47.8200", "1 ", Lamborghini Huracan Evo2 (GT3), no,"0", "01:56.9013", "42.3163", "38.8250", "35.7600",     "0 ",
"7 ", "01:47.6250", "1 ", Lamborghini Huracan Evo2 (GT3), no,"0", "01:56.9013", "42.3163", "38.8250", "35.7600",     "0 ",
"8 ", "01:47.6720", "1 ", Lamborghini Huracan Evo2 (GT3), no,"0", "01:56.9013", "42.3163", "38.8250", "35.7600",     "0 ",
"9 ", "01:47.6000", "1 ", Lamborghini Huracan Evo2 (GT3), no,"0", "01:56.9013", "42.3163", "38.8250", "35.7600",     "0 ",
"10 ", "01:47.5200", "1 ", Lamborghini Huracan Evo2 (GT3), no,"0", "01:56.9013", "42.3163", "38.8250", "35.7600",     "0 ",
"11 ", "01:47.7100", "1 ", Lamborghini Huracan Evo2 (GT3), no,"0", "01:56.9013", "42.3163", "38.8250", "35.7600",     "0 ",
"12 ", "01:47.5920", "1 ", Lamborghini Huracan Evo2 (GT3), no,"0", "01:56.9013", "42.3163", "38.8250", "35.7600",     "0 ",
"13 ", "01:47.6470", "1 ", Lamborghini Huracan Evo2 (GT3), no,"0", "01:56.9013", "42.3163", "38.8250", "35.7600",     "0 ",
"14 ", "01:47.6200", "1 ", Lamborghini Huracan Evo2 (GT3), no,"0", "01:56.9013", "42.3163", "38.8250", "35.7600",     "0 ",
"15 ", "01:47.7600", "1 ", Lamborghini Huracan Evo2 (GT3), no,"0", "01:56.9013", "42.3163", "38.8250", "35.7600",     "0 ",
"16 ", "01:53.7450", "1 ", Lamborghini Huracan Evo2 (GT3), no,"0", "01:56.9013", "42.3163", "38.8250", "35.7600",     "0 ",
"17 ", "02:48.8700", "1 ", Lamborghini Huracan Evo2 (GT3), no,"0", "01:56.9013", "42.3163", "38.8250", "35.7600",     "0 ",
"18 ", "01:47.4520", "1 ", Lamborghini Huracan Evo2 (GT3), no,"0", "01:56.9013", "42.3163", "38.8250", "35.7600",     "0 ",
"19 ", "01:47.7400", "1 ", Lamborghini Huracan Evo2 (GT3), no,"0", "01:56.9013", "42.3163", "38.8250", "35.7600",     "0 ",
"20 ", "01:47.0870", "1 ", Lamborghini Huracan Evo2 (GT3), no,"0", "01:56.9013", "42.3163", "38.8250", "35.7600",     "0 ",
"21 ", "01:47.1520", "1 ", Lamborghini Huracan Evo2 (GT3), no,"0", "01:56.9013", "42.3163", "38.8250", "35.7600",     "0 ",
"22 ", "01:47.1020", "1 ", Lamborghini Huracan Evo2 (GT3), no,"0", "01:56.9013", "42.3163", "38.8250", "35.7600",     "0 ",
"23 ", "01:47.3150", "1 ", Lamborghini Huracan Evo2 (GT3), no,"0", "01:56.9013", "42.3163", "38.8250", "35.7600",     "0 ",
"24 ", "01:47.1100", "1 ", Lamborghini Huracan Evo2 (GT3), no,"0", "01:56.9013", "42.3163", "38.8250", "35.7600",     "0 ",
"25 ", "01:47.0650", "1 ", Lamborghini Huracan Evo2 (GT3), no,"0", "01:56.9013", "42.3163", "38.8250", "35.7600",     "0 ",
"26 ", "01:47.2320", "1 ", Lamborghini Huracan Evo2 (GT3), no,"0", "01:56.9013", "42.3163", "38.8250", "35.7600",     "0 ",
"27 ", "01:47.1670", "1 ", Lamborghini Huracan Evo2 (GT3), no,"0", "01:56.9013", "42.3163", "38.8250", "35.7600",     "0 ",
"28 ", "01:47.3450", "1 ", Lamborghini Huracan Evo2 (GT3), no,"0", "01:56.9013", "42.3163", "38.8250", "35.7600",     "0 ",
"29 ", "01:47.2570", "1 ", Lamborghini Huracan Evo2 (GT3), no,"0", "01:56.9013", "42.3163", "38.8250", "35.7600",     "0 ",
"30 ", "01:47.8250", "1 ", Lamborghini Huracan Evo2 (GT3), no,"0", "01:56.9013", "42.3163", "38.8250", "35.7600",     "0 ",
"31 ", "01:47.4400", "1 ", Lamborghini Huracan Evo2 (GT3), no,"0", "01:56.9013", "42.3163", "38.8250", "35.7600",     "0 ",
"32 ", "01:47.4570", "1 ", Lamborghini Huracan Evo2 (GT3), no,"0", "01:56.9013", "42.3163", "38.8250", "35.7600",     "0 ",
"33 ", "01:47.3720", "1 ", Lamborghini Huracan Evo2 (GT3), no,"0", "01:56.9013", "42.3163", "38.8250", "35.7600",     "0 ",